EESchema Schematic File Version 4
EELAYER 30 0
EELAYER END
$Descr A4 11693 8268
encoding utf-8
Sheet 1 1
Title "LH28F160S5 Amiga Kickstart Adapter"
Date "2019-12-21"
Rev "1.0"
Comp ""
Comment1 ""
Comment2 ""
Comment3 "License: Creative Commons Attribution-ShareAlike 4.0 International (CC BY-SA 4.0)"
Comment4 "© 2019 Torsten Kurbad <amiga[at]tk-webart.de>"
$EndDescr
$Comp
L 28F160Adapter:27C160-28F160Adapter M1
U 1 1 5DFC67E5
P 2450 4000
F 0 "M1" V 2450 2744 45  0000 R CNN
F 1 "27C160" H 2450 4000 45  0001 L BNN
F 2 "28F160Adapter:DIP-42_W15.24mm" H 2480 4150 20  0001 C CNN
F 3 "" H 2450 4000 50  0001 C CNN
	1    2450 4000
	0    -1   -1   0   
$EndComp
$Comp
L power:GND #PWR0101
U 1 1 5DFCBA5C
P 4600 4800
F 0 "#PWR0101" H 4600 4550 50  0001 C CNN
F 1 "GND" H 4605 4627 50  0000 C CNN
F 2 "" H 4600 4800 50  0001 C CNN
F 3 "" H 4600 4800 50  0001 C CNN
	1    4600 4800
	1    0    0    -1  
$EndComp
Wire Wire Line
	6500 4200 7000 4200
$Comp
L power:GND #PWR0102
U 1 1 5DFCC1B0
P 7000 4200
F 0 "#PWR0102" H 7000 3950 50  0001 C CNN
F 1 "GND" H 7150 4150 50  0000 C CNN
F 2 "" H 7000 4200 50  0001 C CNN
F 3 "" H 7000 4200 50  0001 C CNN
	1    7000 4200
	1    0    0    -1  
$EndComp
Wire Wire Line
	6500 3600 7000 3600
$Comp
L power:GND #PWR0103
U 1 1 5DFCC970
P 7000 3600
F 0 "#PWR0103" H 7000 3350 50  0001 C CNN
F 1 "GND" H 7150 3550 50  0000 C CNN
F 2 "" H 7000 3600 50  0001 C CNN
F 3 "" H 7000 3600 50  0001 C CNN
	1    7000 3600
	1    0    0    -1  
$EndComp
Wire Wire Line
	6500 4700 7000 4700
$Comp
L power:VCC #PWR0104
U 1 1 5DFCD112
P 7000 4700
F 0 "#PWR0104" H 7000 4550 50  0001 C CNN
F 1 "VCC" H 7150 4750 50  0000 C CNN
F 2 "" H 7000 4700 50  0001 C CNN
F 3 "" H 7000 4700 50  0001 C CNN
	1    7000 4700
	1    0    0    -1  
$EndComp
Wire Wire Line
	5400 3600 4950 3600
$Comp
L power:VCC #PWR0105
U 1 1 5DFCE021
P 4950 3600
F 0 "#PWR0105" H 4950 3450 50  0001 C CNN
F 1 "VCC" H 4967 3773 50  0000 C CNN
F 2 "" H 4950 3600 50  0001 C CNN
F 3 "" H 4950 3600 50  0001 C CNN
	1    4950 3600
	1    0    0    -1  
$EndComp
Wire Wire Line
	3450 3400 3600 3400
$Comp
L power:VCC #PWR0106
U 1 1 5DFDE375
P 3600 3400
F 0 "#PWR0106" H 3600 3250 50  0001 C CNN
F 1 "VCC" H 3617 3573 50  0000 C CNN
F 2 "" H 3600 3400 50  0001 C CNN
F 3 "" H 3600 3400 50  0001 C CNN
	1    3600 3400
	1    0    0    -1  
$EndComp
Wire Wire Line
	2550 4600 2550 5300
$Comp
L power:GND #PWR0107
U 1 1 5DFDFAB3
P 2550 5300
F 0 "#PWR0107" H 2550 5050 50  0001 C CNN
F 1 "GND" H 2555 5127 50  0000 C CNN
F 2 "" H 2550 5300 50  0001 C CNN
F 3 "" H 2550 5300 50  0001 C CNN
	1    2550 5300
	1    0    0    -1  
$EndComp
Wire Wire Line
	2550 3400 2550 2400
Wire Wire Line
	2550 2400 2750 2400
$Comp
L power:GND #PWR0108
U 1 1 5DFE18D6
P 2750 2400
F 0 "#PWR0108" H 2750 2150 50  0001 C CNN
F 1 "GND" H 2755 2227 50  0000 C CNN
F 2 "" H 2750 2400 50  0001 C CNN
F 3 "" H 2750 2400 50  0001 C CNN
	1    2750 2400
	1    0    0    -1  
$EndComp
Wire Wire Line
	2250 6700 2250 4600
Wire Wire Line
	5400 5400 5200 5400
Wire Wire Line
	2150 6650 2150 4600
Wire Wire Line
	5400 5300 5100 5300
Wire Wire Line
	2050 6600 2050 4600
Wire Wire Line
	5400 5200 5000 5200
Wire Wire Line
	1950 6550 1950 4600
Wire Wire Line
	5400 5100 4900 5100
Wire Wire Line
	1850 6500 1850 4600
Wire Wire Line
	5400 5000 4800 5000
Wire Wire Line
	1750 6450 1750 4600
Wire Wire Line
	5400 4900 4700 4900
Wire Wire Line
	1650 6400 1650 4600
Wire Wire Line
	4600 4800 5400 4800
Wire Wire Line
	4850 1350 1550 1350
Wire Wire Line
	1550 1350 1550 3400
Wire Wire Line
	4650 1450 1750 1450
Wire Wire Line
	1750 1450 1750 3400
Wire Wire Line
	5400 4400 4650 4400
Wire Wire Line
	4550 1500 1850 1500
Wire Wire Line
	1850 1500 1850 3400
Wire Wire Line
	5400 4000 4550 4000
Wire Wire Line
	4450 1550 1950 1550
Wire Wire Line
	1950 1550 1950 3400
Wire Wire Line
	5400 3900 4450 3900
Wire Wire Line
	4350 1600 2050 1600
Wire Wire Line
	2050 1600 2050 3400
Wire Wire Line
	5400 3800 4350 3800
Wire Wire Line
	4250 1650 2150 1650
Wire Wire Line
	2150 1650 2150 3400
Wire Wire Line
	5400 3700 4250 3700
Wire Wire Line
	4150 1700 2250 1700
Wire Wire Line
	2250 1700 2250 3400
Wire Wire Line
	5400 3500 5050 3500
Wire Wire Line
	5050 3500 5050 3350
Wire Wire Line
	5050 3350 4150 3350
Wire Wire Line
	4050 1750 2350 1750
Wire Wire Line
	2350 1750 2350 3400
Wire Wire Line
	1150 4900 1550 4900
Wire Wire Line
	1550 4900 1550 4600
Wire Wire Line
	1250 1200 1250 4850
Wire Wire Line
	1250 4850 1450 4850
Wire Wire Line
	1450 4850 1450 4600
Wire Wire Line
	5100 3400 5400 3400
Wire Wire Line
	5150 3300 5400 3300
Wire Wire Line
	2450 4600 2450 6350
Wire Wire Line
	2450 6350 4350 6350
Wire Wire Line
	4350 6350 4350 4100
Wire Wire Line
	4350 4100 5200 4100
Wire Wire Line
	5200 2900 5200 4100
Connection ~ 5200 4100
Wire Wire Line
	5200 4100 5400 4100
Wire Wire Line
	3950 1800 2450 1800
Wire Wire Line
	2450 1800 2450 3400
Wire Wire Line
	6500 5300 6700 5300
Wire Wire Line
	6700 5300 6700 5650
Wire Wire Line
	6500 2800 6650 2800
$Comp
L power:VCC #PWR0109
U 1 1 5E06539F
P 6650 2800
F 0 "#PWR0109" H 6650 2650 50  0001 C CNN
F 1 "VCC" H 6667 2973 50  0000 C CNN
F 2 "" H 6650 2800 50  0001 C CNN
F 3 "" H 6650 2800 50  0001 C CNN
	1    6650 2800
	1    0    0    -1  
$EndComp
Wire Wire Line
	2650 4600 2650 6300
Wire Wire Line
	2650 6300 3850 6300
Wire Wire Line
	3850 6300 3850 2400
Wire Wire Line
	3850 2400 6850 2400
Wire Wire Line
	6850 2400 6850 3000
Wire Wire Line
	6850 3000 6500 3000
Wire Wire Line
	6500 5100 6900 5100
Wire Wire Line
	6900 5100 6900 6250
Wire Wire Line
	6900 6250 2750 6250
Wire Wire Line
	2750 6250 2750 4600
Wire Wire Line
	2850 4600 2850 6200
Wire Wire Line
	2850 6200 7000 6200
Wire Wire Line
	7000 6200 7000 5000
Wire Wire Line
	7000 5000 6500 5000
Wire Wire Line
	2950 4600 2950 6150
Wire Wire Line
	2950 6150 7100 6150
Wire Wire Line
	7100 6150 7100 4900
Wire Wire Line
	7100 4900 6500 4900
Wire Wire Line
	3050 4600 3050 6100
Wire Wire Line
	3050 6100 7200 6100
Wire Wire Line
	7200 6100 7200 4800
Wire Wire Line
	7200 4800 6500 4800
Wire Wire Line
	3150 4600 3150 6050
Wire Wire Line
	3150 6050 7300 6050
Wire Wire Line
	7300 6050 7300 4500
Wire Wire Line
	7300 4500 6900 4500
Wire Wire Line
	6900 4500 6900 4600
Wire Wire Line
	6900 4600 6500 4600
Wire Wire Line
	3250 4600 3250 6000
Wire Wire Line
	3250 6000 7400 6000
Wire Wire Line
	7400 6000 7400 4450
Wire Wire Line
	7400 4450 6800 4450
Wire Wire Line
	6800 4450 6800 4500
Wire Wire Line
	6800 4500 6500 4500
Wire Wire Line
	3350 4600 3350 5950
Wire Wire Line
	3350 5950 7500 5950
Wire Wire Line
	7500 5950 7500 4400
Wire Wire Line
	7500 4400 6500 4400
Wire Wire Line
	3450 4600 3450 5900
Wire Wire Line
	3450 5900 7600 5900
Wire Wire Line
	7600 5900 7600 4350
Wire Wire Line
	7600 4350 6900 4350
Wire Wire Line
	6900 4350 6900 4300
Wire Wire Line
	6900 4300 6500 4300
Wire Wire Line
	6500 4100 7000 4100
$Comp
L power:VCC #PWR0110
U 1 1 5E0BFA67
P 7000 4100
F 0 "#PWR0110" H 7000 3950 50  0001 C CNN
F 1 "VCC" H 7150 4150 50  0000 C CNN
F 2 "" H 7000 4100 50  0001 C CNN
F 3 "" H 7000 4100 50  0001 C CNN
	1    7000 4100
	1    0    0    -1  
$EndComp
Wire Wire Line
	3350 3400 3350 2350
Wire Wire Line
	3350 2350 7850 2350
Wire Wire Line
	7850 2350 7850 3950
Wire Wire Line
	7850 3950 6900 3950
Wire Wire Line
	6900 3950 6900 4000
Wire Wire Line
	6900 4000 6500 4000
Wire Wire Line
	3250 3400 3250 2300
Wire Wire Line
	3250 2300 7750 2300
Wire Wire Line
	7750 2300 7750 3900
Wire Wire Line
	7750 3900 6500 3900
Wire Wire Line
	3150 3400 3150 2250
Wire Wire Line
	3150 2250 7650 2250
Wire Wire Line
	7650 2250 7650 3800
Wire Wire Line
	7650 3800 6500 3800
Wire Wire Line
	3050 3400 3050 2200
Wire Wire Line
	3050 2200 7550 2200
Wire Wire Line
	7550 2200 7550 3750
Wire Wire Line
	7550 3750 6900 3750
Wire Wire Line
	6900 3750 6900 3700
Wire Wire Line
	6900 3700 6500 3700
Wire Wire Line
	2950 3400 3000 3400
Wire Wire Line
	3000 3400 3000 2150
Wire Wire Line
	3000 2150 7450 2150
Wire Wire Line
	7450 2150 7450 3500
Wire Wire Line
	7450 3500 6500 3500
Wire Wire Line
	2850 3400 2850 3350
Wire Wire Line
	2850 3350 2950 3350
Wire Wire Line
	2950 3350 2950 2100
Wire Wire Line
	2950 2100 7350 2100
Wire Wire Line
	7350 2100 7350 3400
Wire Wire Line
	7350 3400 6500 3400
Wire Wire Line
	2750 3400 2750 3300
Wire Wire Line
	2750 3300 2900 3300
Wire Wire Line
	2900 3300 2900 2050
Wire Wire Line
	2900 2050 7250 2050
Wire Wire Line
	7250 2050 7250 3300
Wire Wire Line
	7250 3300 6500 3300
Wire Wire Line
	2650 3400 2650 3250
Wire Wire Line
	2650 3250 2850 3250
Wire Wire Line
	2850 3250 2850 2000
Wire Wire Line
	2850 2000 7150 2000
Wire Wire Line
	7150 2000 7150 3200
Wire Wire Line
	7150 3200 6500 3200
$Comp
L power:GND #PWR0111
U 1 1 5E10E5D0
P 5600 1600
F 0 "#PWR0111" H 5600 1350 50  0001 C CNN
F 1 "GND" H 5600 1600 50  0000 C CNN
F 2 "" H 5600 1600 50  0001 C CNN
F 3 "" H 5600 1600 50  0001 C CNN
	1    5600 1600
	1    0    0    -1  
$EndComp
Wire Wire Line
	6500 2900 6750 2900
$Comp
L Connector:Conn_01x04_Male J2
U 1 1 5E1A948E
P 5800 1400
F 0 "J2" V 5862 1544 50  0000 L CNN
F 1 "Conn_01x04_Male" V 5700 1200 50  0000 L CNN
F 2 "Connector_PinHeader_2.54mm:PinHeader_1x04_P2.54mm_Horizontal" H 5800 1400 50  0001 C CNN
F 3 "~" H 5800 1400 50  0001 C CNN
	1    5800 1400
	0    1    1    0   
$EndComp
Wire Wire Line
	5700 1700 5700 1600
$Comp
L Device:R R5
U 1 1 5E1D58E3
P 5250 1050
F 0 "R5" H 5320 1096 50  0000 L CNN
F 1 "10k" H 5320 1005 50  0000 L CNN
F 2 "Resistor_SMD:R_0603_1608Metric_Pad1.05x0.95mm_HandSolder" V 5180 1050 50  0001 C CNN
F 3 "~" H 5250 1050 50  0001 C CNN
	1    5250 1050
	1    0    0    -1  
$EndComp
$Comp
L Device:R R4
U 1 1 5E1D74D3
P 5500 1050
F 0 "R4" H 5570 1096 50  0000 L CNN
F 1 "10k" H 5570 1005 50  0000 L CNN
F 2 "Resistor_SMD:R_0603_1608Metric_Pad1.05x0.95mm_HandSolder" V 5430 1050 50  0001 C CNN
F 3 "~" H 5500 1050 50  0001 C CNN
	1    5500 1050
	1    0    0    -1  
$EndComp
$Comp
L Device:R R1
U 1 1 5E1E6504
P 7300 1750
F 0 "R1" V 7093 1750 50  0000 C CNN
F 1 "10k" V 7184 1750 50  0000 C CNN
F 2 "Resistor_SMD:R_0603_1608Metric_Pad1.05x0.95mm_HandSolder" V 7230 1750 50  0001 C CNN
F 3 "~" H 7300 1750 50  0001 C CNN
	1    7300 1750
	0    1    1    0   
$EndComp
Wire Wire Line
	5500 1750 5500 1200
Wire Wire Line
	5250 1700 5250 1200
$Comp
L power:VCC #PWR0113
U 1 1 5E27336F
P 5500 900
F 0 "#PWR0113" H 5500 750 50  0001 C CNN
F 1 "VCC" H 5650 950 50  0000 C CNN
F 2 "" H 5500 900 50  0001 C CNN
F 3 "" H 5500 900 50  0001 C CNN
	1    5500 900 
	1    0    0    -1  
$EndComp
$Comp
L power:VCC #PWR0114
U 1 1 5E2738B0
P 5250 900
F 0 "#PWR0114" H 5250 750 50  0001 C CNN
F 1 "VCC" H 5400 950 50  0000 C CNN
F 2 "" H 5250 900 50  0001 C CNN
F 3 "" H 5250 900 50  0001 C CNN
	1    5250 900 
	1    0    0    -1  
$EndComp
Wire Wire Line
	7450 1750 7600 1750
$Comp
L power:VCC #PWR0116
U 1 1 5E290C0C
P 7600 1400
F 0 "#PWR0116" H 7600 1250 50  0001 C CNN
F 1 "VCC" H 7600 1550 50  0000 C CNN
F 2 "" H 7600 1400 50  0001 C CNN
F 3 "" H 7600 1400 50  0001 C CNN
	1    7600 1400
	1    0    0    -1  
$EndComp
$Comp
L power:GND #PWR0117
U 1 1 5E2952AF
P 1350 7250
F 0 "#PWR0117" H 1350 7000 50  0001 C CNN
F 1 "GND" H 1355 7077 50  0000 C CNN
F 2 "" H 1350 7250 50  0001 C CNN
F 3 "" H 1350 7250 50  0001 C CNN
	1    1350 7250
	1    0    0    -1  
$EndComp
$Comp
L Device:C C1
U 1 1 5E2A39C1
P 1350 7100
F 0 "C1" H 1465 7146 50  0000 L CNN
F 1 "100nF 16V" H 1465 7055 50  0000 L CNN
F 2 "Capacitor_SMD:C_0603_1608Metric_Pad1.05x0.95mm_HandSolder" H 1388 6950 50  0001 C CNN
F 3 "~" H 1350 7100 50  0001 C CNN
	1    1350 7100
	1    0    0    -1  
$EndComp
$Comp
L power:VCC #PWR0118
U 1 1 5E2B2B57
P 1350 6950
F 0 "#PWR0118" H 1350 6800 50  0001 C CNN
F 1 "VCC" H 1367 7123 50  0000 C CNN
F 2 "" H 1350 6950 50  0001 C CNN
F 3 "" H 1350 6950 50  0001 C CNN
	1    1350 6950
	1    0    0    -1  
$EndComp
Text Notes 750  6950 0    50   ~ 0
Decoupling
Wire Wire Line
	3950 5650 6700 5650
Wire Wire Line
	3950 1800 3950 5650
Wire Wire Line
	5200 6700 2250 6700
Wire Wire Line
	2350 6750 2350 4600
Wire Wire Line
	5300 6750 2350 6750
Wire Wire Line
	5400 5500 5300 5500
Wire Wire Line
	5300 5500 5300 6750
Wire Wire Line
	5100 6650 2150 6650
Wire Wire Line
	5200 5400 5200 6700
Wire Wire Line
	5000 6600 2050 6600
Wire Wire Line
	5100 5300 5100 6650
Wire Wire Line
	4900 6550 1950 6550
Wire Wire Line
	5000 5200 5000 6600
Wire Wire Line
	4800 6500 1850 6500
Wire Wire Line
	4900 5100 4900 6550
Wire Wire Line
	4700 6450 1750 6450
Wire Wire Line
	4800 5000 4800 6500
Wire Wire Line
	4450 4700 4450 6400
Wire Wire Line
	4450 6400 1650 6400
Wire Wire Line
	4700 4900 4700 6450
Wire Wire Line
	4850 4600 4850 1350
Wire Wire Line
	4850 4600 5400 4600
Wire Wire Line
	4450 4700 5400 4700
Wire Wire Line
	5400 4500 4750 4500
Wire Wire Line
	1650 1400 1650 3400
Wire Wire Line
	4750 1400 1650 1400
Wire Wire Line
	4750 1400 4750 4500
Wire Wire Line
	4650 1450 4650 4400
Wire Wire Line
	4550 1500 4550 4000
Wire Wire Line
	4450 1550 4450 3900
Wire Wire Line
	4350 1600 4350 3800
Wire Wire Line
	4250 1650 4250 3700
Wire Wire Line
	4150 1700 4150 3350
Wire Wire Line
	5100 3400 5100 3300
Wire Wire Line
	5100 3300 4050 3300
Wire Wire Line
	4050 3300 4050 1750
Wire Wire Line
	1150 1150 1150 4900
Wire Wire Line
	5150 1150 1150 1150
Wire Wire Line
	1250 1200 5050 1200
Wire Wire Line
	5050 1200 5050 1750
Wire Wire Line
	5050 3200 5400 3200
Wire Wire Line
	6500 5200 6800 5200
$Comp
L power:GND #PWR0119
U 1 1 5E3A4608
P 6800 5200
F 0 "#PWR0119" H 6800 4950 50  0001 C CNN
F 1 "GND" H 6805 5027 50  0000 C CNN
F 2 "" H 6800 5200 50  0001 C CNN
F 3 "" H 6800 5200 50  0001 C CNN
	1    6800 5200
	1    0    0    -1  
$EndComp
Wire Wire Line
	5400 4200 5150 4200
Wire Wire Line
	5150 4200 5150 4300
Wire Wire Line
	5150 4300 4950 4300
$Comp
L power:VPP #PWR0120
U 1 1 5E3B3A67
P 4950 4300
F 0 "#PWR0120" H 4950 4150 50  0001 C CNN
F 1 "VPP" H 4965 4473 50  0000 C CNN
F 2 "" H 4950 4300 50  0001 C CNN
F 3 "" H 4950 4300 50  0001 C CNN
	1    4950 4300
	1    0    0    -1  
$EndComp
Wire Wire Line
	1450 3400 1450 1300
Wire Wire Line
	1450 1300 4950 1300
Wire Wire Line
	4950 1300 4950 1700
Wire Wire Line
	4950 3100 5400 3100
Connection ~ 4950 1700
Wire Wire Line
	4950 1700 4950 3100
Connection ~ 5050 1750
Wire Wire Line
	5050 1750 5050 3200
Connection ~ 5500 1750
Wire Wire Line
	5500 1750 5050 1750
$Comp
L Device:R R3
U 1 1 5E4419F7
P 7300 1050
F 0 "R3" V 7093 1050 50  0000 C CNN
F 1 "10k" V 7184 1050 50  0000 C CNN
F 2 "Resistor_SMD:R_0603_1608Metric_Pad1.05x0.95mm_HandSolder" V 7230 1050 50  0001 C CNN
F 3 "~" H 7300 1050 50  0001 C CNN
	1    7300 1050
	0    1    1    0   
$EndComp
Wire Wire Line
	7450 1050 7600 1050
$Comp
L power:VCC #PWR0121
U 1 1 5E441A02
P 7600 1750
F 0 "#PWR0121" H 7600 1600 50  0001 C CNN
F 1 "VCC" H 7617 1923 50  0000 C CNN
F 2 "" H 7600 1750 50  0001 C CNN
F 3 "" H 7600 1750 50  0001 C CNN
	1    7600 1750
	1    0    0    -1  
$EndComp
$Comp
L power:VPP #PWR0122
U 1 1 5E41CC6E
P 6450 1650
F 0 "#PWR0122" H 6450 1500 50  0001 C CNN
F 1 "VPP" H 6465 1823 50  0000 C CNN
F 2 "" H 6450 1650 50  0001 C CNN
F 3 "" H 6450 1650 50  0001 C CNN
	1    6450 1650
	1    0    0    1   
$EndComp
Wire Wire Line
	5400 4300 5250 4300
Wire Wire Line
	5250 1950 6650 1950
$Comp
L Device:R R2
U 1 1 5E1F5A64
P 7300 1400
F 0 "R2" V 7093 1400 50  0000 C CNN
F 1 "10k" V 7184 1400 50  0000 C CNN
F 2 "Resistor_SMD:R_0603_1608Metric_Pad1.05x0.95mm_HandSolder" V 7230 1400 50  0001 C CNN
F 3 "~" H 7300 1400 50  0001 C CNN
	1    7300 1400
	0    1    1    0   
$EndComp
$Comp
L Connector:Conn_01x04_Male J1
U 1 1 5E10C422
P 6650 1250
F 0 "J1" V 6712 1394 50  0000 L CNN
F 1 "Conn_01x04_Male" V 6550 1100 50  0000 L CNN
F 2 "Connector_PinHeader_2.54mm:PinHeader_1x04_P2.54mm_Horizontal" H 6650 1250 50  0001 C CNN
F 3 "~" H 6650 1250 50  0001 C CNN
	1    6650 1250
	0    1    1    0   
$EndComp
Wire Wire Line
	7150 1400 7050 1400
Wire Wire Line
	6650 1450 6650 1650
Wire Wire Line
	6650 1650 7050 1650
Connection ~ 6650 1650
Wire Wire Line
	6650 1650 6650 1950
Wire Wire Line
	7050 1400 7050 1650
Wire Wire Line
	7150 1750 6750 1750
Connection ~ 6750 1750
Wire Wire Line
	6750 1450 6750 1750
Wire Wire Line
	6750 1750 6750 2900
Text Label 6500 2800 0    50   ~ 0
VCC
Text Label 6500 2900 0    50   ~ 0
_WE
Text Label 6500 3000 0    50   ~ 0
_OE
Text Label 6500 3200 0    50   ~ 0
Q15
Text Label 6500 3300 0    50   ~ 0
Q7
Text Label 6500 3400 0    50   ~ 0
Q14
Text Label 6500 3500 0    50   ~ 0
Q6
Text Label 6500 3600 0    50   ~ 0
GND
Text Label 6500 3700 0    50   ~ 0
Q13
Text Label 6500 3800 0    50   ~ 0
Q5
Text Label 6500 3900 0    50   ~ 0
Q12
Text Label 6500 4000 0    50   ~ 0
Q4
Text Label 6500 4100 0    50   ~ 0
VCC
Text Label 6500 4200 0    50   ~ 0
GND
Text Label 6500 4300 0    50   ~ 0
Q11
Text Label 6500 4400 0    50   ~ 0
Q3
Text Label 6500 4500 0    50   ~ 0
Q10
Text Label 6500 4600 0    50   ~ 0
Q2
Text Label 6500 4700 0    50   ~ 0
VCC
Text Label 6500 4800 0    50   ~ 0
Q9
Text Label 6500 4900 0    50   ~ 0
Q1
Text Label 6500 5000 0    50   ~ 0
Q8
Text Label 6500 5100 0    50   ~ 0
Q0
Text Label 6500 5200 0    50   ~ 0
GND
Text Label 5300 3100 0    50   ~ 0
A19
Text Label 5300 3200 0    50   ~ 0
A18
Text Label 5300 3300 0    50   ~ 0
A17
Text Label 5300 3400 0    50   ~ 0
A16
Text Label 5300 3500 0    50   ~ 0
A15
Text Label 5300 3600 0    50   ~ 0
VCC
Text Label 5300 3700 0    50   ~ 0
A14
Wire Wire Line
	5250 4300 5250 1950
Wire Wire Line
	5400 2900 5200 2900
Text Label 5300 2900 0    50   ~ 0
_CE
Text Label 5300 3800 0    50   ~ 0
A13
Text Label 5300 3900 0    50   ~ 0
A12
Text Label 5300 4000 0    50   ~ 0
A11
Text Label 5300 4100 0    50   ~ 0
_CE
Text Label 5300 4200 0    50   ~ 0
VPP
Text Label 5300 4300 0    50   ~ 0
_RP
Text Label 5300 4400 0    50   ~ 0
A10
Text Label 5350 4500 0    50   ~ 0
A9
Text Label 6500 5300 0    50   ~ 0
_BYTE
Text Label 5350 4600 0    50   ~ 0
A8
Text Label 5350 4700 0    50   ~ 0
A7
Text Label 5300 4800 0    50   ~ 0
GND
Text Label 5350 4900 0    50   ~ 0
A6
Text Label 5350 5000 0    50   ~ 0
A5
Text Label 5350 5100 0    50   ~ 0
A4
Text Label 5350 5200 0    50   ~ 0
A3
Text Label 5350 5300 0    50   ~ 0
A2
Text Label 5350 5400 0    50   ~ 0
A1
Text Label 5350 5500 0    50   ~ 0
A0
Connection ~ 5250 1700
Wire Wire Line
	5250 1700 4950 1700
Wire Wire Line
	5250 1700 5700 1700
Wire Wire Line
	5150 1150 5150 3300
$Comp
L power:GND #PWR0112
U 1 1 5E014C9A
P 7600 1050
F 0 "#PWR0112" H 7600 800 50  0001 C CNN
F 1 "GND" H 7750 1000 50  0000 C CNN
F 2 "" H 7600 1050 50  0001 C CNN
F 3 "" H 7600 1050 50  0001 C CNN
	1    7600 1050
	1    0    0    -1  
$EndComp
Wire Wire Line
	7450 1400 7600 1400
Wire Wire Line
	6350 1050 6350 1450
Wire Wire Line
	6350 1450 6450 1450
Wire Wire Line
	6350 1050 7150 1050
Wire Wire Line
	6450 1650 6450 1450
Connection ~ 6450 1450
Wire Wire Line
	6550 1450 6550 1900
Wire Wire Line
	6550 1900 6950 1900
Wire Wire Line
	6950 1900 6950 3100
Wire Wire Line
	6950 3100 6500 3100
Text Label 6500 3100 0    50   ~ 0
RY_BY
Wire Wire Line
	5900 1750 5900 1600
Wire Wire Line
	5500 1750 5900 1750
$Comp
L power:GND #PWR?
U 1 1 5E03E578
P 5800 1600
F 0 "#PWR?" H 5800 1350 50  0001 C CNN
F 1 "GND" H 5800 1600 50  0000 C CNN
F 2 "" H 5800 1600 50  0001 C CNN
F 3 "" H 5800 1600 50  0001 C CNN
	1    5800 1600
	1    0    0    -1  
$EndComp
$Comp
L 28F160Adapter:LH28F160S5T U1
U 1 1 5DFC740E
P 5950 5650
F 0 "U1" H 5950 8765 50  0000 C CNN
F 1 "LH28F160S5T" H 5950 8674 50  0000 C CNN
F 2 "Package_SO:TSOP-I-56_18.4x14mm_P0.5mm" H 5950 5650 50  0001 C CNN
F 3 "LH28F160S5T.pdf" H 5950 5650 50  0001 C CNN
	1    5950 5650
	1    0    0    -1  
$EndComp
$EndSCHEMATC
