G04 #@! TF.GenerationSoftware,KiCad,Pcbnew,5.1.5*
G04 #@! TF.CreationDate,2020-01-10T10:35:25+01:00*
G04 #@! TF.ProjectId,28F160Prog,32384631-3630-4507-926f-672e6b696361,1.0*
G04 #@! TF.SameCoordinates,Original*
G04 #@! TF.FileFunction,Legend,Top*
G04 #@! TF.FilePolarity,Positive*
%FSLAX46Y46*%
G04 Gerber Fmt 4.6, Leading zero omitted, Abs format (unit mm)*
G04 Created by KiCad (PCBNEW 5.1.5) date 2020-01-10 10:35:25*
%MOMM*%
%LPD*%
G04 APERTURE LIST*
%ADD10C,0.100000*%
%ADD11C,0.120000*%
%ADD12C,0.110000*%
%ADD13C,0.200000*%
%ADD14C,0.150000*%
G04 APERTURE END LIST*
D10*
X148922028Y-97200257D02*
X148922028Y-97533590D01*
X148802980Y-97009780D02*
X148683933Y-97366923D01*
X148993457Y-97366923D01*
X149279171Y-97033590D02*
X149326790Y-97033590D01*
X149374409Y-97057400D01*
X149398219Y-97081209D01*
X149422028Y-97128828D01*
X149445838Y-97224066D01*
X149445838Y-97343114D01*
X149422028Y-97438352D01*
X149398219Y-97485971D01*
X149374409Y-97509780D01*
X149326790Y-97533590D01*
X149279171Y-97533590D01*
X149231552Y-97509780D01*
X149207742Y-97485971D01*
X149183933Y-97438352D01*
X149160123Y-97343114D01*
X149160123Y-97224066D01*
X149183933Y-97128828D01*
X149207742Y-97081209D01*
X149231552Y-97057400D01*
X149279171Y-97033590D01*
X150183933Y-97724066D02*
X150160123Y-97700257D01*
X150112504Y-97628828D01*
X150088695Y-97581209D01*
X150064885Y-97509780D01*
X150041076Y-97390733D01*
X150041076Y-97295495D01*
X150064885Y-97176447D01*
X150088695Y-97105019D01*
X150112504Y-97057400D01*
X150160123Y-96985971D01*
X150183933Y-96962161D01*
X150588695Y-97200257D02*
X150588695Y-97533590D01*
X150469647Y-97009780D02*
X150350600Y-97366923D01*
X150660123Y-97366923D01*
X150945838Y-97033590D02*
X150993457Y-97033590D01*
X151041076Y-97057400D01*
X151064885Y-97081209D01*
X151088695Y-97128828D01*
X151112504Y-97224066D01*
X151112504Y-97343114D01*
X151088695Y-97438352D01*
X151064885Y-97485971D01*
X151041076Y-97509780D01*
X150993457Y-97533590D01*
X150945838Y-97533590D01*
X150898219Y-97509780D01*
X150874409Y-97485971D01*
X150850600Y-97438352D01*
X150826790Y-97343114D01*
X150826790Y-97224066D01*
X150850600Y-97128828D01*
X150874409Y-97081209D01*
X150898219Y-97057400D01*
X150945838Y-97033590D01*
X151707742Y-97533590D02*
X151707742Y-97033590D01*
X151898219Y-97033590D01*
X151945838Y-97057400D01*
X151969647Y-97081209D01*
X151993457Y-97128828D01*
X151993457Y-97200257D01*
X151969647Y-97247876D01*
X151945838Y-97271685D01*
X151898219Y-97295495D01*
X151707742Y-97295495D01*
X152207742Y-97533590D02*
X152207742Y-97200257D01*
X152207742Y-97033590D02*
X152183933Y-97057400D01*
X152207742Y-97081209D01*
X152231552Y-97057400D01*
X152207742Y-97033590D01*
X152207742Y-97081209D01*
X152445838Y-97200257D02*
X152445838Y-97533590D01*
X152445838Y-97247876D02*
X152469647Y-97224066D01*
X152517266Y-97200257D01*
X152588695Y-97200257D01*
X152636314Y-97224066D01*
X152660123Y-97271685D01*
X152660123Y-97533590D01*
X152850600Y-97724066D02*
X152874409Y-97700257D01*
X152922028Y-97628828D01*
X152945838Y-97581209D01*
X152969647Y-97509780D01*
X152993457Y-97390733D01*
X152993457Y-97295495D01*
X152969647Y-97176447D01*
X152945838Y-97105019D01*
X152922028Y-97057400D01*
X152874409Y-96985971D01*
X152850600Y-96962161D01*
X148922028Y-94634857D02*
X148922028Y-94968190D01*
X148802980Y-94444380D02*
X148683933Y-94801523D01*
X148993457Y-94801523D01*
X149160123Y-94515809D02*
X149183933Y-94492000D01*
X149231552Y-94468190D01*
X149350600Y-94468190D01*
X149398219Y-94492000D01*
X149422028Y-94515809D01*
X149445838Y-94563428D01*
X149445838Y-94611047D01*
X149422028Y-94682476D01*
X149136314Y-94968190D01*
X149445838Y-94968190D01*
X150183933Y-95158666D02*
X150160123Y-95134857D01*
X150112504Y-95063428D01*
X150088695Y-95015809D01*
X150064885Y-94944380D01*
X150041076Y-94825333D01*
X150041076Y-94730095D01*
X150064885Y-94611047D01*
X150088695Y-94539619D01*
X150112504Y-94492000D01*
X150160123Y-94420571D01*
X150183933Y-94396761D01*
X150588695Y-94634857D02*
X150588695Y-94968190D01*
X150469647Y-94444380D02*
X150350600Y-94801523D01*
X150660123Y-94801523D01*
X150826790Y-94515809D02*
X150850600Y-94492000D01*
X150898219Y-94468190D01*
X151017266Y-94468190D01*
X151064885Y-94492000D01*
X151088695Y-94515809D01*
X151112504Y-94563428D01*
X151112504Y-94611047D01*
X151088695Y-94682476D01*
X150802980Y-94968190D01*
X151112504Y-94968190D01*
X151707742Y-94968190D02*
X151707742Y-94468190D01*
X151898219Y-94468190D01*
X151945838Y-94492000D01*
X151969647Y-94515809D01*
X151993457Y-94563428D01*
X151993457Y-94634857D01*
X151969647Y-94682476D01*
X151945838Y-94706285D01*
X151898219Y-94730095D01*
X151707742Y-94730095D01*
X152207742Y-94968190D02*
X152207742Y-94634857D01*
X152207742Y-94468190D02*
X152183933Y-94492000D01*
X152207742Y-94515809D01*
X152231552Y-94492000D01*
X152207742Y-94468190D01*
X152207742Y-94515809D01*
X152445838Y-94634857D02*
X152445838Y-94968190D01*
X152445838Y-94682476D02*
X152469647Y-94658666D01*
X152517266Y-94634857D01*
X152588695Y-94634857D01*
X152636314Y-94658666D01*
X152660123Y-94706285D01*
X152660123Y-94968190D01*
X152850600Y-95158666D02*
X152874409Y-95134857D01*
X152922028Y-95063428D01*
X152945838Y-95015809D01*
X152969647Y-94944380D01*
X152993457Y-94825333D01*
X152993457Y-94730095D01*
X152969647Y-94611047D01*
X152945838Y-94539619D01*
X152922028Y-94492000D01*
X152874409Y-94420571D01*
X152850600Y-94396761D01*
X117991142Y-97660590D02*
X117705428Y-97660590D01*
X117848285Y-97660590D02*
X117848285Y-97160590D01*
X117800666Y-97232019D01*
X117753047Y-97279638D01*
X117705428Y-97303447D01*
X118729238Y-97851066D02*
X118705428Y-97827257D01*
X118657809Y-97755828D01*
X118634000Y-97708209D01*
X118610190Y-97636780D01*
X118586380Y-97517733D01*
X118586380Y-97422495D01*
X118610190Y-97303447D01*
X118634000Y-97232019D01*
X118657809Y-97184400D01*
X118705428Y-97112971D01*
X118729238Y-97089161D01*
X119134000Y-97327257D02*
X119134000Y-97660590D01*
X119014952Y-97136780D02*
X118895904Y-97493923D01*
X119205428Y-97493923D01*
X119491142Y-97160590D02*
X119538761Y-97160590D01*
X119586380Y-97184400D01*
X119610190Y-97208209D01*
X119634000Y-97255828D01*
X119657809Y-97351066D01*
X119657809Y-97470114D01*
X119634000Y-97565352D01*
X119610190Y-97612971D01*
X119586380Y-97636780D01*
X119538761Y-97660590D01*
X119491142Y-97660590D01*
X119443523Y-97636780D01*
X119419714Y-97612971D01*
X119395904Y-97565352D01*
X119372095Y-97470114D01*
X119372095Y-97351066D01*
X119395904Y-97255828D01*
X119419714Y-97208209D01*
X119443523Y-97184400D01*
X119491142Y-97160590D01*
X120253047Y-97660590D02*
X120253047Y-97160590D01*
X120443523Y-97160590D01*
X120491142Y-97184400D01*
X120514952Y-97208209D01*
X120538761Y-97255828D01*
X120538761Y-97327257D01*
X120514952Y-97374876D01*
X120491142Y-97398685D01*
X120443523Y-97422495D01*
X120253047Y-97422495D01*
X120753047Y-97660590D02*
X120753047Y-97327257D01*
X120753047Y-97160590D02*
X120729238Y-97184400D01*
X120753047Y-97208209D01*
X120776857Y-97184400D01*
X120753047Y-97160590D01*
X120753047Y-97208209D01*
X120991142Y-97327257D02*
X120991142Y-97660590D01*
X120991142Y-97374876D02*
X121014952Y-97351066D01*
X121062571Y-97327257D01*
X121134000Y-97327257D01*
X121181619Y-97351066D01*
X121205428Y-97398685D01*
X121205428Y-97660590D01*
X121395904Y-97851066D02*
X121419714Y-97827257D01*
X121467333Y-97755828D01*
X121491142Y-97708209D01*
X121514952Y-97636780D01*
X121538761Y-97517733D01*
X121538761Y-97422495D01*
X121514952Y-97303447D01*
X121491142Y-97232019D01*
X121467333Y-97184400D01*
X121419714Y-97112971D01*
X121395904Y-97089161D01*
X117940342Y-95095190D02*
X117654628Y-95095190D01*
X117797485Y-95095190D02*
X117797485Y-94595190D01*
X117749866Y-94666619D01*
X117702247Y-94714238D01*
X117654628Y-94738047D01*
X118678438Y-95285666D02*
X118654628Y-95261857D01*
X118607009Y-95190428D01*
X118583200Y-95142809D01*
X118559390Y-95071380D01*
X118535580Y-94952333D01*
X118535580Y-94857095D01*
X118559390Y-94738047D01*
X118583200Y-94666619D01*
X118607009Y-94619000D01*
X118654628Y-94547571D01*
X118678438Y-94523761D01*
X119083200Y-94761857D02*
X119083200Y-95095190D01*
X118964152Y-94571380D02*
X118845104Y-94928523D01*
X119154628Y-94928523D01*
X119321295Y-94642809D02*
X119345104Y-94619000D01*
X119392723Y-94595190D01*
X119511771Y-94595190D01*
X119559390Y-94619000D01*
X119583200Y-94642809D01*
X119607009Y-94690428D01*
X119607009Y-94738047D01*
X119583200Y-94809476D01*
X119297485Y-95095190D01*
X119607009Y-95095190D01*
X120202247Y-95095190D02*
X120202247Y-94595190D01*
X120392723Y-94595190D01*
X120440342Y-94619000D01*
X120464152Y-94642809D01*
X120487961Y-94690428D01*
X120487961Y-94761857D01*
X120464152Y-94809476D01*
X120440342Y-94833285D01*
X120392723Y-94857095D01*
X120202247Y-94857095D01*
X120702247Y-95095190D02*
X120702247Y-94761857D01*
X120702247Y-94595190D02*
X120678438Y-94619000D01*
X120702247Y-94642809D01*
X120726057Y-94619000D01*
X120702247Y-94595190D01*
X120702247Y-94642809D01*
X120940342Y-94761857D02*
X120940342Y-95095190D01*
X120940342Y-94809476D02*
X120964152Y-94785666D01*
X121011771Y-94761857D01*
X121083200Y-94761857D01*
X121130819Y-94785666D01*
X121154628Y-94833285D01*
X121154628Y-95095190D01*
X121345104Y-95285666D02*
X121368914Y-95261857D01*
X121416533Y-95190428D01*
X121440342Y-95142809D01*
X121464152Y-95071380D01*
X121487961Y-94952333D01*
X121487961Y-94857095D01*
X121464152Y-94738047D01*
X121440342Y-94666619D01*
X121416533Y-94619000D01*
X121368914Y-94547571D01*
X121345104Y-94523761D01*
D11*
X121767600Y-93319600D02*
X121767600Y-96316800D01*
X121767600Y-93319600D02*
X123113800Y-93319600D01*
X122224800Y-95859600D02*
X122224800Y-98856800D01*
X122250200Y-95859600D02*
X123596400Y-95859600D01*
X148031200Y-95935800D02*
X148031200Y-98933000D01*
X146685000Y-95935800D02*
X148031200Y-95935800D01*
X148513800Y-93395800D02*
X148513800Y-96393000D01*
X147167600Y-93395800D02*
X148513800Y-93395800D01*
X117779800Y-99542600D02*
X118999000Y-99542600D01*
X117779800Y-123621800D02*
X117779800Y-99542600D01*
X119024400Y-123621800D02*
X117779800Y-123621800D01*
D12*
X118542571Y-122916938D02*
X118566380Y-122940747D01*
X118590190Y-123012176D01*
X118590190Y-123059795D01*
X118566380Y-123131223D01*
X118518761Y-123178842D01*
X118471142Y-123202652D01*
X118375904Y-123226461D01*
X118304476Y-123226461D01*
X118209238Y-123202652D01*
X118161619Y-123178842D01*
X118114000Y-123131223D01*
X118090190Y-123059795D01*
X118090190Y-123012176D01*
X118114000Y-122940747D01*
X118137809Y-122916938D01*
X118590190Y-122631223D02*
X118566380Y-122678842D01*
X118542571Y-122702652D01*
X118494952Y-122726461D01*
X118352095Y-122726461D01*
X118304476Y-122702652D01*
X118280666Y-122678842D01*
X118256857Y-122631223D01*
X118256857Y-122559795D01*
X118280666Y-122512176D01*
X118304476Y-122488366D01*
X118352095Y-122464557D01*
X118494952Y-122464557D01*
X118542571Y-122488366D01*
X118566380Y-122512176D01*
X118590190Y-122559795D01*
X118590190Y-122631223D01*
X118256857Y-122250271D02*
X118590190Y-122250271D01*
X118304476Y-122250271D02*
X118280666Y-122226461D01*
X118256857Y-122178842D01*
X118256857Y-122107414D01*
X118280666Y-122059795D01*
X118328285Y-122035985D01*
X118590190Y-122035985D01*
X118256857Y-121797890D02*
X118590190Y-121797890D01*
X118304476Y-121797890D02*
X118280666Y-121774080D01*
X118256857Y-121726461D01*
X118256857Y-121655033D01*
X118280666Y-121607414D01*
X118328285Y-121583604D01*
X118590190Y-121583604D01*
X118566380Y-121155033D02*
X118590190Y-121202652D01*
X118590190Y-121297890D01*
X118566380Y-121345509D01*
X118518761Y-121369319D01*
X118328285Y-121369319D01*
X118280666Y-121345509D01*
X118256857Y-121297890D01*
X118256857Y-121202652D01*
X118280666Y-121155033D01*
X118328285Y-121131223D01*
X118375904Y-121131223D01*
X118423523Y-121369319D01*
X118566380Y-120702652D02*
X118590190Y-120750271D01*
X118590190Y-120845509D01*
X118566380Y-120893128D01*
X118542571Y-120916938D01*
X118494952Y-120940747D01*
X118352095Y-120940747D01*
X118304476Y-120916938D01*
X118280666Y-120893128D01*
X118256857Y-120845509D01*
X118256857Y-120750271D01*
X118280666Y-120702652D01*
X118256857Y-120559795D02*
X118256857Y-120369319D01*
X118090190Y-120488366D02*
X118518761Y-120488366D01*
X118566380Y-120464557D01*
X118590190Y-120416938D01*
X118590190Y-120369319D01*
X118590190Y-120202652D02*
X118256857Y-120202652D01*
X118090190Y-120202652D02*
X118114000Y-120226461D01*
X118137809Y-120202652D01*
X118114000Y-120178842D01*
X118090190Y-120202652D01*
X118137809Y-120202652D01*
X118590190Y-119893128D02*
X118566380Y-119940747D01*
X118542571Y-119964557D01*
X118494952Y-119988366D01*
X118352095Y-119988366D01*
X118304476Y-119964557D01*
X118280666Y-119940747D01*
X118256857Y-119893128D01*
X118256857Y-119821700D01*
X118280666Y-119774080D01*
X118304476Y-119750271D01*
X118352095Y-119726461D01*
X118494952Y-119726461D01*
X118542571Y-119750271D01*
X118566380Y-119774080D01*
X118590190Y-119821700D01*
X118590190Y-119893128D01*
X118256857Y-119512176D02*
X118590190Y-119512176D01*
X118304476Y-119512176D02*
X118280666Y-119488366D01*
X118256857Y-119440747D01*
X118256857Y-119369319D01*
X118280666Y-119321700D01*
X118328285Y-119297890D01*
X118590190Y-119297890D01*
X118090190Y-118750271D02*
X118090190Y-118464557D01*
X118590190Y-118607414D02*
X118090190Y-118607414D01*
X118590190Y-118083604D02*
X118328285Y-118083604D01*
X118280666Y-118107414D01*
X118256857Y-118155033D01*
X118256857Y-118250271D01*
X118280666Y-118297890D01*
X118566380Y-118083604D02*
X118590190Y-118131223D01*
X118590190Y-118250271D01*
X118566380Y-118297890D01*
X118518761Y-118321700D01*
X118471142Y-118321700D01*
X118423523Y-118297890D01*
X118399714Y-118250271D01*
X118399714Y-118131223D01*
X118375904Y-118083604D01*
X118590190Y-117845509D02*
X118090190Y-117845509D01*
X118280666Y-117845509D02*
X118256857Y-117797890D01*
X118256857Y-117702652D01*
X118280666Y-117655033D01*
X118304476Y-117631223D01*
X118352095Y-117607414D01*
X118494952Y-117607414D01*
X118542571Y-117631223D01*
X118566380Y-117655033D01*
X118590190Y-117702652D01*
X118590190Y-117797890D01*
X118566380Y-117845509D01*
X118590190Y-117321700D02*
X118566380Y-117369319D01*
X118518761Y-117393128D01*
X118090190Y-117393128D01*
X118566380Y-116940747D02*
X118590190Y-116988366D01*
X118590190Y-117083604D01*
X118566380Y-117131223D01*
X118518761Y-117155033D01*
X118328285Y-117155033D01*
X118280666Y-117131223D01*
X118256857Y-117083604D01*
X118256857Y-116988366D01*
X118280666Y-116940747D01*
X118328285Y-116916938D01*
X118375904Y-116916938D01*
X118423523Y-117155033D01*
X118256857Y-116393128D02*
X118256857Y-116202652D01*
X118590190Y-116321700D02*
X118161619Y-116321700D01*
X118114000Y-116297890D01*
X118090190Y-116250271D01*
X118090190Y-116202652D01*
X118590190Y-115964557D02*
X118566380Y-116012176D01*
X118542571Y-116035985D01*
X118494952Y-116059795D01*
X118352095Y-116059795D01*
X118304476Y-116035985D01*
X118280666Y-116012176D01*
X118256857Y-115964557D01*
X118256857Y-115893128D01*
X118280666Y-115845509D01*
X118304476Y-115821700D01*
X118352095Y-115797890D01*
X118494952Y-115797890D01*
X118542571Y-115821700D01*
X118566380Y-115845509D01*
X118590190Y-115893128D01*
X118590190Y-115964557D01*
X118590190Y-115583604D02*
X118256857Y-115583604D01*
X118352095Y-115583604D02*
X118304476Y-115559795D01*
X118280666Y-115535985D01*
X118256857Y-115488366D01*
X118256857Y-115440747D01*
X118590190Y-114893128D02*
X118090190Y-114893128D01*
X118090190Y-114774080D01*
X118114000Y-114702652D01*
X118161619Y-114655033D01*
X118209238Y-114631223D01*
X118304476Y-114607414D01*
X118375904Y-114607414D01*
X118471142Y-114631223D01*
X118518761Y-114655033D01*
X118566380Y-114702652D01*
X118590190Y-114774080D01*
X118590190Y-114893128D01*
X118590190Y-114393128D02*
X118256857Y-114393128D01*
X118090190Y-114393128D02*
X118114000Y-114416938D01*
X118137809Y-114393128D01*
X118114000Y-114369319D01*
X118090190Y-114393128D01*
X118137809Y-114393128D01*
X118256857Y-114226461D02*
X118256857Y-114035985D01*
X118590190Y-114155033D02*
X118161619Y-114155033D01*
X118114000Y-114131223D01*
X118090190Y-114083604D01*
X118090190Y-114035985D01*
X118256857Y-113940747D02*
X118256857Y-113750271D01*
X118590190Y-113869319D02*
X118161619Y-113869319D01*
X118114000Y-113845509D01*
X118090190Y-113797890D01*
X118090190Y-113750271D01*
X118566380Y-113393128D02*
X118590190Y-113440747D01*
X118590190Y-113535985D01*
X118566380Y-113583604D01*
X118518761Y-113607414D01*
X118328285Y-113607414D01*
X118280666Y-113583604D01*
X118256857Y-113535985D01*
X118256857Y-113440747D01*
X118280666Y-113393128D01*
X118328285Y-113369319D01*
X118375904Y-113369319D01*
X118423523Y-113607414D01*
X118590190Y-113155033D02*
X118256857Y-113155033D01*
X118352095Y-113155033D02*
X118304476Y-113131223D01*
X118280666Y-113107414D01*
X118256857Y-113059795D01*
X118256857Y-113012176D01*
X118566380Y-112655033D02*
X118590190Y-112702652D01*
X118590190Y-112797890D01*
X118566380Y-112845509D01*
X118518761Y-112869319D01*
X118328285Y-112869319D01*
X118280666Y-112845509D01*
X118256857Y-112797890D01*
X118256857Y-112702652D01*
X118280666Y-112655033D01*
X118328285Y-112631223D01*
X118375904Y-112631223D01*
X118423523Y-112869319D01*
X118256857Y-112416938D02*
X118590190Y-112416938D01*
X118304476Y-112416938D02*
X118280666Y-112393128D01*
X118256857Y-112345509D01*
X118256857Y-112274080D01*
X118280666Y-112226461D01*
X118328285Y-112202652D01*
X118590190Y-112202652D01*
X118256857Y-112035985D02*
X118256857Y-111845509D01*
X118090190Y-111964557D02*
X118518761Y-111964557D01*
X118566380Y-111940747D01*
X118590190Y-111893128D01*
X118590190Y-111845509D01*
X118328285Y-111131223D02*
X118328285Y-111297890D01*
X118590190Y-111297890D02*
X118090190Y-111297890D01*
X118090190Y-111059795D01*
X118590190Y-110797890D02*
X118566380Y-110845509D01*
X118518761Y-110869319D01*
X118090190Y-110869319D01*
X118590190Y-110393128D02*
X118328285Y-110393128D01*
X118280666Y-110416938D01*
X118256857Y-110464557D01*
X118256857Y-110559795D01*
X118280666Y-110607414D01*
X118566380Y-110393128D02*
X118590190Y-110440747D01*
X118590190Y-110559795D01*
X118566380Y-110607414D01*
X118518761Y-110631223D01*
X118471142Y-110631223D01*
X118423523Y-110607414D01*
X118399714Y-110559795D01*
X118399714Y-110440747D01*
X118375904Y-110393128D01*
X118566380Y-110178842D02*
X118590190Y-110131223D01*
X118590190Y-110035985D01*
X118566380Y-109988366D01*
X118518761Y-109964557D01*
X118494952Y-109964557D01*
X118447333Y-109988366D01*
X118423523Y-110035985D01*
X118423523Y-110107414D01*
X118399714Y-110155033D01*
X118352095Y-110178842D01*
X118328285Y-110178842D01*
X118280666Y-110155033D01*
X118256857Y-110107414D01*
X118256857Y-110035985D01*
X118280666Y-109988366D01*
X118590190Y-109750271D02*
X118090190Y-109750271D01*
X118590190Y-109535985D02*
X118328285Y-109535985D01*
X118280666Y-109559795D01*
X118256857Y-109607414D01*
X118256857Y-109678842D01*
X118280666Y-109726461D01*
X118304476Y-109750271D01*
X118447333Y-108940747D02*
X118447333Y-108702652D01*
X118590190Y-108988366D02*
X118090190Y-108821700D01*
X118590190Y-108655033D01*
X118590190Y-108274080D02*
X118090190Y-108274080D01*
X118566380Y-108274080D02*
X118590190Y-108321700D01*
X118590190Y-108416938D01*
X118566380Y-108464557D01*
X118542571Y-108488366D01*
X118494952Y-108512176D01*
X118352095Y-108512176D01*
X118304476Y-108488366D01*
X118280666Y-108464557D01*
X118256857Y-108416938D01*
X118256857Y-108321700D01*
X118280666Y-108274080D01*
X118590190Y-107821700D02*
X118328285Y-107821700D01*
X118280666Y-107845509D01*
X118256857Y-107893128D01*
X118256857Y-107988366D01*
X118280666Y-108035985D01*
X118566380Y-107821700D02*
X118590190Y-107869319D01*
X118590190Y-107988366D01*
X118566380Y-108035985D01*
X118518761Y-108059795D01*
X118471142Y-108059795D01*
X118423523Y-108035985D01*
X118399714Y-107988366D01*
X118399714Y-107869319D01*
X118375904Y-107821700D01*
X118256857Y-107583604D02*
X118756857Y-107583604D01*
X118280666Y-107583604D02*
X118256857Y-107535985D01*
X118256857Y-107440747D01*
X118280666Y-107393128D01*
X118304476Y-107369319D01*
X118352095Y-107345509D01*
X118494952Y-107345509D01*
X118542571Y-107369319D01*
X118566380Y-107393128D01*
X118590190Y-107440747D01*
X118590190Y-107535985D01*
X118566380Y-107583604D01*
X118256857Y-107202652D02*
X118256857Y-107012176D01*
X118090190Y-107131223D02*
X118518761Y-107131223D01*
X118566380Y-107107414D01*
X118590190Y-107059795D01*
X118590190Y-107012176D01*
X118566380Y-106655033D02*
X118590190Y-106702652D01*
X118590190Y-106797890D01*
X118566380Y-106845509D01*
X118518761Y-106869319D01*
X118328285Y-106869319D01*
X118280666Y-106845509D01*
X118256857Y-106797890D01*
X118256857Y-106702652D01*
X118280666Y-106655033D01*
X118328285Y-106631223D01*
X118375904Y-106631223D01*
X118423523Y-106869319D01*
X118590190Y-106416938D02*
X118256857Y-106416938D01*
X118352095Y-106416938D02*
X118304476Y-106393128D01*
X118280666Y-106369319D01*
X118256857Y-106321700D01*
X118256857Y-106274080D01*
X118566380Y-106131223D02*
X118590190Y-106083604D01*
X118590190Y-105988366D01*
X118566380Y-105940747D01*
X118518761Y-105916938D01*
X118494952Y-105916938D01*
X118447333Y-105940747D01*
X118423523Y-105988366D01*
X118423523Y-106059795D01*
X118399714Y-106107414D01*
X118352095Y-106131223D01*
X118328285Y-106131223D01*
X118280666Y-106107414D01*
X118256857Y-106059795D01*
X118256857Y-105988366D01*
X118280666Y-105940747D01*
D11*
X121386600Y-99593400D02*
X121386600Y-123621800D01*
X120116600Y-99542600D02*
X120116600Y-123621800D01*
X119024400Y-101777800D02*
X122707400Y-101777800D01*
X119024400Y-103962200D02*
X122707400Y-103987600D01*
X119024400Y-106095800D02*
X122707400Y-106121200D01*
X119024400Y-108280200D02*
X122707400Y-108305600D01*
X119024400Y-110845600D02*
X122707400Y-110820200D01*
X119024400Y-113487200D02*
X122682000Y-113487200D01*
X119049800Y-116052600D02*
X122682000Y-116052600D01*
X119024400Y-118694200D02*
X122707400Y-118694200D01*
X118999000Y-123621800D02*
X118999000Y-99542600D01*
X122707400Y-123621800D02*
X119024400Y-123621800D01*
X122707400Y-99542600D02*
X122707400Y-123621800D01*
X118999000Y-99542600D02*
X122707400Y-99542600D01*
D10*
X122222390Y-123020266D02*
X121960485Y-123020266D01*
X121912866Y-123044076D01*
X121889057Y-123091695D01*
X121889057Y-123186933D01*
X121912866Y-123234552D01*
X122198580Y-123020266D02*
X122222390Y-123067885D01*
X122222390Y-123186933D01*
X122198580Y-123234552D01*
X122150961Y-123258361D01*
X122103342Y-123258361D01*
X122055723Y-123234552D01*
X122031914Y-123186933D01*
X122031914Y-123067885D01*
X122008104Y-123020266D01*
X122222390Y-122782171D02*
X121889057Y-122782171D01*
X121936676Y-122782171D02*
X121912866Y-122758361D01*
X121889057Y-122710742D01*
X121889057Y-122639314D01*
X121912866Y-122591695D01*
X121960485Y-122567885D01*
X122222390Y-122567885D01*
X121960485Y-122567885D02*
X121912866Y-122544076D01*
X121889057Y-122496457D01*
X121889057Y-122425028D01*
X121912866Y-122377409D01*
X121960485Y-122353600D01*
X122222390Y-122353600D01*
X122222390Y-122115504D02*
X121889057Y-122115504D01*
X121722390Y-122115504D02*
X121746200Y-122139314D01*
X121770009Y-122115504D01*
X121746200Y-122091695D01*
X121722390Y-122115504D01*
X121770009Y-122115504D01*
X121889057Y-121663123D02*
X122293819Y-121663123D01*
X122341438Y-121686933D01*
X122365247Y-121710742D01*
X122389057Y-121758361D01*
X122389057Y-121829790D01*
X122365247Y-121877409D01*
X122198580Y-121663123D02*
X122222390Y-121710742D01*
X122222390Y-121805980D01*
X122198580Y-121853600D01*
X122174771Y-121877409D01*
X122127152Y-121901219D01*
X121984295Y-121901219D01*
X121936676Y-121877409D01*
X121912866Y-121853600D01*
X121889057Y-121805980D01*
X121889057Y-121710742D01*
X121912866Y-121663123D01*
X122222390Y-121210742D02*
X121960485Y-121210742D01*
X121912866Y-121234552D01*
X121889057Y-121282171D01*
X121889057Y-121377409D01*
X121912866Y-121425028D01*
X122198580Y-121210742D02*
X122222390Y-121258361D01*
X122222390Y-121377409D01*
X122198580Y-121425028D01*
X122150961Y-121448838D01*
X122103342Y-121448838D01*
X122055723Y-121425028D01*
X122031914Y-121377409D01*
X122031914Y-121258361D01*
X122008104Y-121210742D01*
X121889057Y-121020266D02*
X122222390Y-120925028D01*
X121984295Y-120829790D01*
X122222390Y-120734552D01*
X121889057Y-120639314D01*
X122222390Y-120377409D02*
X122198580Y-120425028D01*
X122174771Y-120448838D01*
X122127152Y-120472647D01*
X121984295Y-120472647D01*
X121936676Y-120448838D01*
X121912866Y-120425028D01*
X121889057Y-120377409D01*
X121889057Y-120305980D01*
X121912866Y-120258361D01*
X121936676Y-120234552D01*
X121984295Y-120210742D01*
X122127152Y-120210742D01*
X122174771Y-120234552D01*
X122198580Y-120258361D01*
X122222390Y-120305980D01*
X122222390Y-120377409D01*
X122222390Y-119996457D02*
X121889057Y-119996457D01*
X121984295Y-119996457D02*
X121936676Y-119972647D01*
X121912866Y-119948838D01*
X121889057Y-119901219D01*
X121889057Y-119853600D01*
X122222390Y-119615504D02*
X122198580Y-119663123D01*
X122150961Y-119686933D01*
X121722390Y-119686933D01*
X122222390Y-119210742D02*
X121722390Y-119210742D01*
X122198580Y-119210742D02*
X122222390Y-119258361D01*
X122222390Y-119353600D01*
X122198580Y-119401219D01*
X122174771Y-119425028D01*
X122127152Y-119448838D01*
X121984295Y-119448838D01*
X121936676Y-119425028D01*
X121912866Y-119401219D01*
X121889057Y-119353600D01*
X121889057Y-119258361D01*
X121912866Y-119210742D01*
X121722390Y-117496457D02*
X121722390Y-117186933D01*
X121912866Y-117353600D01*
X121912866Y-117282171D01*
X121936676Y-117234552D01*
X121960485Y-117210742D01*
X122008104Y-117186933D01*
X122127152Y-117186933D01*
X122174771Y-117210742D01*
X122198580Y-117234552D01*
X122222390Y-117282171D01*
X122222390Y-117425028D01*
X122198580Y-117472647D01*
X122174771Y-117496457D01*
X122031914Y-115067885D02*
X122031914Y-114686933D01*
X122031914Y-112544076D02*
X122031914Y-112163123D01*
X122031914Y-110020266D02*
X122031914Y-109639314D01*
X122222390Y-106853600D02*
X122222390Y-107139314D01*
X122222390Y-106996457D02*
X121722390Y-106996457D01*
X121793819Y-107044076D01*
X121841438Y-107091695D01*
X121865247Y-107139314D01*
X121770009Y-105139314D02*
X121746200Y-105115504D01*
X121722390Y-105067885D01*
X121722390Y-104948838D01*
X121746200Y-104901219D01*
X121770009Y-104877409D01*
X121817628Y-104853600D01*
X121865247Y-104853600D01*
X121936676Y-104877409D01*
X122222390Y-105163123D01*
X122222390Y-104853600D01*
X122031914Y-103115504D02*
X122031914Y-102734552D01*
X122031914Y-100972647D02*
X122031914Y-100591695D01*
X120669857Y-121318466D02*
X121074619Y-121318466D01*
X121122238Y-121342276D01*
X121146047Y-121366085D01*
X121169857Y-121413704D01*
X121169857Y-121485133D01*
X121146047Y-121532752D01*
X120979380Y-121318466D02*
X121003190Y-121366085D01*
X121003190Y-121461323D01*
X120979380Y-121508942D01*
X120955571Y-121532752D01*
X120907952Y-121556561D01*
X120765095Y-121556561D01*
X120717476Y-121532752D01*
X120693666Y-121508942D01*
X120669857Y-121461323D01*
X120669857Y-121366085D01*
X120693666Y-121318466D01*
X120669857Y-120866085D02*
X121074619Y-120866085D01*
X121122238Y-120889895D01*
X121146047Y-120913704D01*
X121169857Y-120961323D01*
X121169857Y-121032752D01*
X121146047Y-121080371D01*
X120979380Y-120866085D02*
X121003190Y-120913704D01*
X121003190Y-121008942D01*
X120979380Y-121056561D01*
X120955571Y-121080371D01*
X120907952Y-121104180D01*
X120765095Y-121104180D01*
X120717476Y-121080371D01*
X120693666Y-121056561D01*
X120669857Y-121008942D01*
X120669857Y-120913704D01*
X120693666Y-120866085D01*
X121003190Y-120556561D02*
X120979380Y-120604180D01*
X120931761Y-120627990D01*
X120503190Y-120627990D01*
X121003190Y-120151800D02*
X120741285Y-120151800D01*
X120693666Y-120175609D01*
X120669857Y-120223228D01*
X120669857Y-120318466D01*
X120693666Y-120366085D01*
X120979380Y-120151800D02*
X121003190Y-120199419D01*
X121003190Y-120318466D01*
X120979380Y-120366085D01*
X120931761Y-120389895D01*
X120884142Y-120389895D01*
X120836523Y-120366085D01*
X120812714Y-120318466D01*
X120812714Y-120199419D01*
X120788904Y-120151800D01*
X121003190Y-119913704D02*
X120503190Y-119913704D01*
X120693666Y-119913704D02*
X120669857Y-119866085D01*
X120669857Y-119770847D01*
X120693666Y-119723228D01*
X120717476Y-119699419D01*
X120765095Y-119675609D01*
X120907952Y-119675609D01*
X120955571Y-119699419D01*
X120979380Y-119723228D01*
X121003190Y-119770847D01*
X121003190Y-119866085D01*
X120979380Y-119913704D01*
X120979380Y-119485133D02*
X121003190Y-119437514D01*
X121003190Y-119342276D01*
X120979380Y-119294657D01*
X120931761Y-119270847D01*
X120907952Y-119270847D01*
X120860333Y-119294657D01*
X120836523Y-119342276D01*
X120836523Y-119413704D01*
X120812714Y-119461323D01*
X120765095Y-119485133D01*
X120741285Y-119485133D01*
X120693666Y-119461323D01*
X120669857Y-119413704D01*
X120669857Y-119342276D01*
X120693666Y-119294657D01*
X120860333Y-117937514D02*
X120860333Y-117699419D01*
X121003190Y-117985133D02*
X120503190Y-117818466D01*
X121003190Y-117651800D01*
X121003190Y-117223228D02*
X121003190Y-117508942D01*
X121003190Y-117366085D02*
X120503190Y-117366085D01*
X120574619Y-117413704D01*
X120622238Y-117461323D01*
X120646047Y-117508942D01*
X120717476Y-116937514D02*
X120693666Y-116985133D01*
X120669857Y-117008942D01*
X120622238Y-117032752D01*
X120598428Y-117032752D01*
X120550809Y-117008942D01*
X120527000Y-116985133D01*
X120503190Y-116937514D01*
X120503190Y-116842276D01*
X120527000Y-116794657D01*
X120550809Y-116770847D01*
X120598428Y-116747038D01*
X120622238Y-116747038D01*
X120669857Y-116770847D01*
X120693666Y-116794657D01*
X120717476Y-116842276D01*
X120717476Y-116937514D01*
X120741285Y-116985133D01*
X120765095Y-117008942D01*
X120812714Y-117032752D01*
X120907952Y-117032752D01*
X120955571Y-117008942D01*
X120979380Y-116985133D01*
X121003190Y-116937514D01*
X121003190Y-116842276D01*
X120979380Y-116794657D01*
X120955571Y-116770847D01*
X120907952Y-116747038D01*
X120812714Y-116747038D01*
X120765095Y-116770847D01*
X120741285Y-116794657D01*
X120717476Y-116842276D01*
X120812714Y-115008942D02*
X120812714Y-114627990D01*
X120812714Y-112485133D02*
X120812714Y-112104180D01*
X120812714Y-109961323D02*
X120812714Y-109580371D01*
X120503190Y-107485133D02*
X121003190Y-107366085D01*
X120646047Y-107270847D01*
X121003190Y-107175609D01*
X120503190Y-107056561D01*
X120741285Y-106866085D02*
X120741285Y-106699419D01*
X121003190Y-106627990D02*
X121003190Y-106866085D01*
X120503190Y-106866085D01*
X120503190Y-106627990D01*
X121003190Y-105366085D02*
X120765095Y-105532752D01*
X121003190Y-105651800D02*
X120503190Y-105651800D01*
X120503190Y-105461323D01*
X120527000Y-105413704D01*
X120550809Y-105389895D01*
X120598428Y-105366085D01*
X120669857Y-105366085D01*
X120717476Y-105389895D01*
X120741285Y-105413704D01*
X120765095Y-105461323D01*
X120765095Y-105651800D01*
X120979380Y-105175609D02*
X121003190Y-105104180D01*
X121003190Y-104985133D01*
X120979380Y-104937514D01*
X120955571Y-104913704D01*
X120907952Y-104889895D01*
X120860333Y-104889895D01*
X120812714Y-104913704D01*
X120788904Y-104937514D01*
X120765095Y-104985133D01*
X120741285Y-105080371D01*
X120717476Y-105127990D01*
X120693666Y-105151800D01*
X120646047Y-105175609D01*
X120598428Y-105175609D01*
X120550809Y-105151800D01*
X120527000Y-105127990D01*
X120503190Y-105080371D01*
X120503190Y-104961323D01*
X120527000Y-104889895D01*
X120503190Y-104747038D02*
X120503190Y-104461323D01*
X121003190Y-104604180D02*
X120503190Y-104604180D01*
X120741285Y-103366085D02*
X120765095Y-103294657D01*
X120788904Y-103270847D01*
X120836523Y-103247038D01*
X120907952Y-103247038D01*
X120955571Y-103270847D01*
X120979380Y-103294657D01*
X121003190Y-103342276D01*
X121003190Y-103532752D01*
X120503190Y-103532752D01*
X120503190Y-103366085D01*
X120527000Y-103318466D01*
X120550809Y-103294657D01*
X120598428Y-103270847D01*
X120646047Y-103270847D01*
X120693666Y-103294657D01*
X120717476Y-103318466D01*
X120741285Y-103366085D01*
X120741285Y-103532752D01*
X120979380Y-103056561D02*
X121003190Y-102985133D01*
X121003190Y-102866085D01*
X120979380Y-102818466D01*
X120955571Y-102794657D01*
X120907952Y-102770847D01*
X120860333Y-102770847D01*
X120812714Y-102794657D01*
X120788904Y-102818466D01*
X120765095Y-102866085D01*
X120741285Y-102961323D01*
X120717476Y-103008942D01*
X120693666Y-103032752D01*
X120646047Y-103056561D01*
X120598428Y-103056561D01*
X120550809Y-103032752D01*
X120527000Y-103008942D01*
X120503190Y-102961323D01*
X120503190Y-102842276D01*
X120527000Y-102770847D01*
X120765095Y-102461323D02*
X121003190Y-102461323D01*
X120503190Y-102627990D02*
X120765095Y-102461323D01*
X120503190Y-102294657D01*
X120812714Y-100985133D02*
X120812714Y-100604180D01*
X119382409Y-121912161D02*
X119358600Y-121888352D01*
X119334790Y-121840733D01*
X119334790Y-121721685D01*
X119358600Y-121674066D01*
X119382409Y-121650257D01*
X119430028Y-121626447D01*
X119477647Y-121626447D01*
X119549076Y-121650257D01*
X119834790Y-121935971D01*
X119834790Y-121626447D01*
X119549076Y-121340733D02*
X119525266Y-121388352D01*
X119501457Y-121412161D01*
X119453838Y-121435971D01*
X119430028Y-121435971D01*
X119382409Y-121412161D01*
X119358600Y-121388352D01*
X119334790Y-121340733D01*
X119334790Y-121245495D01*
X119358600Y-121197876D01*
X119382409Y-121174066D01*
X119430028Y-121150257D01*
X119453838Y-121150257D01*
X119501457Y-121174066D01*
X119525266Y-121197876D01*
X119549076Y-121245495D01*
X119549076Y-121340733D01*
X119572885Y-121388352D01*
X119596695Y-121412161D01*
X119644314Y-121435971D01*
X119739552Y-121435971D01*
X119787171Y-121412161D01*
X119810980Y-121388352D01*
X119834790Y-121340733D01*
X119834790Y-121245495D01*
X119810980Y-121197876D01*
X119787171Y-121174066D01*
X119739552Y-121150257D01*
X119644314Y-121150257D01*
X119596695Y-121174066D01*
X119572885Y-121197876D01*
X119549076Y-121245495D01*
X119572885Y-120769304D02*
X119572885Y-120935971D01*
X119834790Y-120935971D02*
X119334790Y-120935971D01*
X119334790Y-120697876D01*
X119834790Y-120245495D02*
X119834790Y-120531209D01*
X119834790Y-120388352D02*
X119334790Y-120388352D01*
X119406219Y-120435971D01*
X119453838Y-120483590D01*
X119477647Y-120531209D01*
X119334790Y-119816923D02*
X119334790Y-119912161D01*
X119358600Y-119959780D01*
X119382409Y-119983590D01*
X119453838Y-120031209D01*
X119549076Y-120055019D01*
X119739552Y-120055019D01*
X119787171Y-120031209D01*
X119810980Y-120007400D01*
X119834790Y-119959780D01*
X119834790Y-119864542D01*
X119810980Y-119816923D01*
X119787171Y-119793114D01*
X119739552Y-119769304D01*
X119620504Y-119769304D01*
X119572885Y-119793114D01*
X119549076Y-119816923D01*
X119525266Y-119864542D01*
X119525266Y-119959780D01*
X119549076Y-120007400D01*
X119572885Y-120031209D01*
X119620504Y-120055019D01*
X119334790Y-119459780D02*
X119334790Y-119412161D01*
X119358600Y-119364542D01*
X119382409Y-119340733D01*
X119430028Y-119316923D01*
X119525266Y-119293114D01*
X119644314Y-119293114D01*
X119739552Y-119316923D01*
X119787171Y-119340733D01*
X119810980Y-119364542D01*
X119834790Y-119412161D01*
X119834790Y-119459780D01*
X119810980Y-119507400D01*
X119787171Y-119531209D01*
X119739552Y-119555019D01*
X119644314Y-119578828D01*
X119525266Y-119578828D01*
X119430028Y-119555019D01*
X119382409Y-119531209D01*
X119358600Y-119507400D01*
X119334790Y-119459780D01*
X119691933Y-117959780D02*
X119691933Y-117721685D01*
X119834790Y-118007400D02*
X119334790Y-117840733D01*
X119834790Y-117674066D01*
X119834790Y-117245495D02*
X119834790Y-117531209D01*
X119834790Y-117388352D02*
X119334790Y-117388352D01*
X119406219Y-117435971D01*
X119453838Y-117483590D01*
X119477647Y-117531209D01*
X119549076Y-116959780D02*
X119525266Y-117007400D01*
X119501457Y-117031209D01*
X119453838Y-117055019D01*
X119430028Y-117055019D01*
X119382409Y-117031209D01*
X119358600Y-117007400D01*
X119334790Y-116959780D01*
X119334790Y-116864542D01*
X119358600Y-116816923D01*
X119382409Y-116793114D01*
X119430028Y-116769304D01*
X119453838Y-116769304D01*
X119501457Y-116793114D01*
X119525266Y-116816923D01*
X119549076Y-116864542D01*
X119549076Y-116959780D01*
X119572885Y-117007400D01*
X119596695Y-117031209D01*
X119644314Y-117055019D01*
X119739552Y-117055019D01*
X119787171Y-117031209D01*
X119810980Y-117007400D01*
X119834790Y-116959780D01*
X119834790Y-116864542D01*
X119810980Y-116816923D01*
X119787171Y-116793114D01*
X119739552Y-116769304D01*
X119644314Y-116769304D01*
X119596695Y-116793114D01*
X119572885Y-116816923D01*
X119549076Y-116864542D01*
X119358600Y-115150257D02*
X119334790Y-115197876D01*
X119334790Y-115269304D01*
X119358600Y-115340733D01*
X119406219Y-115388352D01*
X119453838Y-115412161D01*
X119549076Y-115435971D01*
X119620504Y-115435971D01*
X119715742Y-115412161D01*
X119763361Y-115388352D01*
X119810980Y-115340733D01*
X119834790Y-115269304D01*
X119834790Y-115221685D01*
X119810980Y-115150257D01*
X119787171Y-115126447D01*
X119620504Y-115126447D01*
X119620504Y-115221685D01*
X119834790Y-114912161D02*
X119334790Y-114912161D01*
X119834790Y-114626447D01*
X119334790Y-114626447D01*
X119834790Y-114388352D02*
X119334790Y-114388352D01*
X119334790Y-114269304D01*
X119358600Y-114197876D01*
X119406219Y-114150257D01*
X119453838Y-114126447D01*
X119549076Y-114102638D01*
X119620504Y-114102638D01*
X119715742Y-114126447D01*
X119763361Y-114150257D01*
X119810980Y-114197876D01*
X119834790Y-114269304D01*
X119834790Y-114388352D01*
X119691933Y-112769304D02*
X119691933Y-112531209D01*
X119834790Y-112816923D02*
X119334790Y-112650257D01*
X119834790Y-112483590D01*
X119834790Y-112055019D02*
X119834790Y-112340733D01*
X119834790Y-112197876D02*
X119334790Y-112197876D01*
X119406219Y-112245495D01*
X119453838Y-112293114D01*
X119477647Y-112340733D01*
X119834790Y-111816923D02*
X119834790Y-111721685D01*
X119810980Y-111674066D01*
X119787171Y-111650257D01*
X119715742Y-111602638D01*
X119620504Y-111578828D01*
X119430028Y-111578828D01*
X119382409Y-111602638D01*
X119358600Y-111626447D01*
X119334790Y-111674066D01*
X119334790Y-111769304D01*
X119358600Y-111816923D01*
X119382409Y-111840733D01*
X119430028Y-111864542D01*
X119549076Y-111864542D01*
X119596695Y-111840733D01*
X119620504Y-111816923D01*
X119644314Y-111769304D01*
X119644314Y-111674066D01*
X119620504Y-111626447D01*
X119596695Y-111602638D01*
X119549076Y-111578828D01*
X119358600Y-109959780D02*
X119334790Y-110007400D01*
X119334790Y-110078828D01*
X119358600Y-110150257D01*
X119406219Y-110197876D01*
X119453838Y-110221685D01*
X119549076Y-110245495D01*
X119620504Y-110245495D01*
X119715742Y-110221685D01*
X119763361Y-110197876D01*
X119810980Y-110150257D01*
X119834790Y-110078828D01*
X119834790Y-110031209D01*
X119810980Y-109959780D01*
X119787171Y-109935971D01*
X119620504Y-109935971D01*
X119620504Y-110031209D01*
X119834790Y-109721685D02*
X119334790Y-109721685D01*
X119834790Y-109435971D01*
X119334790Y-109435971D01*
X119834790Y-109197876D02*
X119334790Y-109197876D01*
X119334790Y-109078828D01*
X119358600Y-109007400D01*
X119406219Y-108959780D01*
X119453838Y-108935971D01*
X119549076Y-108912161D01*
X119620504Y-108912161D01*
X119715742Y-108935971D01*
X119763361Y-108959780D01*
X119810980Y-109007400D01*
X119834790Y-109078828D01*
X119834790Y-109197876D01*
X119334790Y-107602638D02*
X119834790Y-107483590D01*
X119477647Y-107388352D01*
X119834790Y-107293114D01*
X119334790Y-107174066D01*
X119572885Y-106983590D02*
X119572885Y-106816923D01*
X119834790Y-106745495D02*
X119834790Y-106983590D01*
X119334790Y-106983590D01*
X119334790Y-106745495D01*
X119834790Y-105102638D02*
X119596695Y-105269304D01*
X119834790Y-105388352D02*
X119334790Y-105388352D01*
X119334790Y-105197876D01*
X119358600Y-105150257D01*
X119382409Y-105126447D01*
X119430028Y-105102638D01*
X119501457Y-105102638D01*
X119549076Y-105126447D01*
X119572885Y-105150257D01*
X119596695Y-105197876D01*
X119596695Y-105388352D01*
X119834790Y-104888352D02*
X119334790Y-104888352D01*
X119334790Y-104697876D01*
X119358600Y-104650257D01*
X119382409Y-104626447D01*
X119430028Y-104602638D01*
X119501457Y-104602638D01*
X119549076Y-104626447D01*
X119572885Y-104650257D01*
X119596695Y-104697876D01*
X119596695Y-104888352D01*
X119572885Y-103078828D02*
X119596695Y-103007400D01*
X119620504Y-102983590D01*
X119668123Y-102959780D01*
X119739552Y-102959780D01*
X119787171Y-102983590D01*
X119810980Y-103007400D01*
X119834790Y-103055019D01*
X119834790Y-103245495D01*
X119334790Y-103245495D01*
X119334790Y-103078828D01*
X119358600Y-103031209D01*
X119382409Y-103007400D01*
X119430028Y-102983590D01*
X119477647Y-102983590D01*
X119525266Y-103007400D01*
X119549076Y-103031209D01*
X119572885Y-103078828D01*
X119572885Y-103245495D01*
X119596695Y-102650257D02*
X119834790Y-102650257D01*
X119334790Y-102816923D02*
X119596695Y-102650257D01*
X119334790Y-102483590D01*
X119334790Y-101245495D02*
X119834790Y-101078828D01*
X119334790Y-100912161D01*
X119834790Y-100745495D02*
X119334790Y-100745495D01*
X119334790Y-100555019D01*
X119358600Y-100507400D01*
X119382409Y-100483590D01*
X119430028Y-100459780D01*
X119501457Y-100459780D01*
X119549076Y-100483590D01*
X119572885Y-100507400D01*
X119596695Y-100555019D01*
X119596695Y-100745495D01*
X119834790Y-100245495D02*
X119334790Y-100245495D01*
X119334790Y-100055019D01*
X119358600Y-100007400D01*
X119382409Y-99983590D01*
X119430028Y-99959780D01*
X119501457Y-99959780D01*
X119549076Y-99983590D01*
X119572885Y-100007400D01*
X119596695Y-100055019D01*
X119596695Y-100245495D01*
D13*
X151053800Y-103124000D02*
X149479000Y-103124000D01*
X151053800Y-101574600D02*
X151053800Y-103124000D01*
X152095200Y-101574600D02*
X151053800Y-101574600D01*
X149479000Y-101574600D02*
X149479000Y-103124000D01*
X148437600Y-101574600D02*
X149479000Y-101574600D01*
X149301200Y-100711000D02*
X148437600Y-101574600D01*
X151282400Y-100761800D02*
X152095200Y-101574600D01*
X150291800Y-99771200D02*
X151282400Y-100761800D01*
X150241000Y-99771200D02*
X149301200Y-100711000D01*
D14*
X109728095Y-96909000D02*
X109632857Y-96861380D01*
X109490000Y-96861380D01*
X109347142Y-96909000D01*
X109251904Y-97004238D01*
X109204285Y-97099476D01*
X109156666Y-97289952D01*
X109156666Y-97432809D01*
X109204285Y-97623285D01*
X109251904Y-97718523D01*
X109347142Y-97813761D01*
X109490000Y-97861380D01*
X109585238Y-97861380D01*
X109728095Y-97813761D01*
X109775714Y-97766142D01*
X109775714Y-97432809D01*
X109585238Y-97432809D01*
X110204285Y-97861380D02*
X110204285Y-96861380D01*
X110775714Y-97861380D01*
X110775714Y-96861380D01*
X111251904Y-97861380D02*
X111251904Y-96861380D01*
X111490000Y-96861380D01*
X111632857Y-96909000D01*
X111728095Y-97004238D01*
X111775714Y-97099476D01*
X111823333Y-97289952D01*
X111823333Y-97432809D01*
X111775714Y-97623285D01*
X111728095Y-97718523D01*
X111632857Y-97813761D01*
X111490000Y-97861380D01*
X111251904Y-97861380D01*
D11*
X102362000Y-101092000D02*
X102362000Y-99314000D01*
D14*
X103052571Y-100687142D02*
X103100190Y-100544285D01*
X103147809Y-100496666D01*
X103243047Y-100449047D01*
X103385904Y-100449047D01*
X103481142Y-100496666D01*
X103528761Y-100544285D01*
X103576380Y-100639523D01*
X103576380Y-101020476D01*
X102576380Y-101020476D01*
X102576380Y-100687142D01*
X102624000Y-100591904D01*
X102671619Y-100544285D01*
X102766857Y-100496666D01*
X102862095Y-100496666D01*
X102957333Y-100544285D01*
X103004952Y-100591904D01*
X103052571Y-100687142D01*
X103052571Y-101020476D01*
X103100190Y-99830000D02*
X103576380Y-99830000D01*
X102576380Y-100163333D02*
X103100190Y-99830000D01*
X102576380Y-99496666D01*
X152852380Y-140937238D02*
X152852380Y-141413428D01*
X151852380Y-141413428D01*
X152852380Y-140603904D02*
X152185714Y-140603904D01*
X151852380Y-140603904D02*
X151900000Y-140651523D01*
X151947619Y-140603904D01*
X151900000Y-140556285D01*
X151852380Y-140603904D01*
X151947619Y-140603904D01*
X152804761Y-139699142D02*
X152852380Y-139794380D01*
X152852380Y-139984857D01*
X152804761Y-140080095D01*
X152757142Y-140127714D01*
X152661904Y-140175333D01*
X152376190Y-140175333D01*
X152280952Y-140127714D01*
X152233333Y-140080095D01*
X152185714Y-139984857D01*
X152185714Y-139794380D01*
X152233333Y-139699142D01*
X152804761Y-138889619D02*
X152852380Y-138984857D01*
X152852380Y-139175333D01*
X152804761Y-139270571D01*
X152709523Y-139318190D01*
X152328571Y-139318190D01*
X152233333Y-139270571D01*
X152185714Y-139175333D01*
X152185714Y-138984857D01*
X152233333Y-138889619D01*
X152328571Y-138842000D01*
X152423809Y-138842000D01*
X152519047Y-139318190D01*
X152185714Y-138413428D02*
X152852380Y-138413428D01*
X152280952Y-138413428D02*
X152233333Y-138365809D01*
X152185714Y-138270571D01*
X152185714Y-138127714D01*
X152233333Y-138032476D01*
X152328571Y-137984857D01*
X152852380Y-137984857D01*
X152804761Y-137556285D02*
X152852380Y-137461047D01*
X152852380Y-137270571D01*
X152804761Y-137175333D01*
X152709523Y-137127714D01*
X152661904Y-137127714D01*
X152566666Y-137175333D01*
X152519047Y-137270571D01*
X152519047Y-137413428D01*
X152471428Y-137508666D01*
X152376190Y-137556285D01*
X152328571Y-137556285D01*
X152233333Y-137508666D01*
X152185714Y-137413428D01*
X152185714Y-137270571D01*
X152233333Y-137175333D01*
X152804761Y-136318190D02*
X152852380Y-136413428D01*
X152852380Y-136603904D01*
X152804761Y-136699142D01*
X152709523Y-136746761D01*
X152328571Y-136746761D01*
X152233333Y-136699142D01*
X152185714Y-136603904D01*
X152185714Y-136413428D01*
X152233333Y-136318190D01*
X152328571Y-136270571D01*
X152423809Y-136270571D01*
X152519047Y-136746761D01*
X152757142Y-135842000D02*
X152804761Y-135794380D01*
X152852380Y-135842000D01*
X152804761Y-135889619D01*
X152757142Y-135842000D01*
X152852380Y-135842000D01*
X152233333Y-135842000D02*
X152280952Y-135794380D01*
X152328571Y-135842000D01*
X152280952Y-135889619D01*
X152233333Y-135842000D01*
X152328571Y-135842000D01*
X152757142Y-134032476D02*
X152804761Y-134080095D01*
X152852380Y-134222952D01*
X152852380Y-134318190D01*
X152804761Y-134461047D01*
X152709523Y-134556285D01*
X152614285Y-134603904D01*
X152423809Y-134651523D01*
X152280952Y-134651523D01*
X152090476Y-134603904D01*
X151995238Y-134556285D01*
X151900000Y-134461047D01*
X151852380Y-134318190D01*
X151852380Y-134222952D01*
X151900000Y-134080095D01*
X151947619Y-134032476D01*
X152757142Y-133032476D02*
X152804761Y-133080095D01*
X152852380Y-133222952D01*
X152852380Y-133318190D01*
X152804761Y-133461047D01*
X152709523Y-133556285D01*
X152614285Y-133603904D01*
X152423809Y-133651523D01*
X152280952Y-133651523D01*
X152090476Y-133603904D01*
X151995238Y-133556285D01*
X151900000Y-133461047D01*
X151852380Y-133318190D01*
X151852380Y-133222952D01*
X151900000Y-133080095D01*
X151947619Y-133032476D01*
X152328571Y-131508666D02*
X152376190Y-131365809D01*
X152423809Y-131318190D01*
X152519047Y-131270571D01*
X152661904Y-131270571D01*
X152757142Y-131318190D01*
X152804761Y-131365809D01*
X152852380Y-131461047D01*
X152852380Y-131842000D01*
X151852380Y-131842000D01*
X151852380Y-131508666D01*
X151900000Y-131413428D01*
X151947619Y-131365809D01*
X152042857Y-131318190D01*
X152138095Y-131318190D01*
X152233333Y-131365809D01*
X152280952Y-131413428D01*
X152328571Y-131508666D01*
X152328571Y-131842000D01*
X152376190Y-130651523D02*
X152852380Y-130651523D01*
X151852380Y-130984857D02*
X152376190Y-130651523D01*
X151852380Y-130318190D01*
X152471428Y-129984857D02*
X152471428Y-129222952D01*
X152804761Y-128794380D02*
X152852380Y-128651523D01*
X152852380Y-128413428D01*
X152804761Y-128318190D01*
X152757142Y-128270571D01*
X152661904Y-128222952D01*
X152566666Y-128222952D01*
X152471428Y-128270571D01*
X152423809Y-128318190D01*
X152376190Y-128413428D01*
X152328571Y-128603904D01*
X152280952Y-128699142D01*
X152233333Y-128746761D01*
X152138095Y-128794380D01*
X152042857Y-128794380D01*
X151947619Y-128746761D01*
X151900000Y-128699142D01*
X151852380Y-128603904D01*
X151852380Y-128365809D01*
X151900000Y-128222952D01*
X152566666Y-127842000D02*
X152566666Y-127365809D01*
X152852380Y-127937238D02*
X151852380Y-127603904D01*
X152852380Y-127270571D01*
X152185714Y-125746761D02*
X152852380Y-125746761D01*
X151804761Y-125984857D02*
X152519047Y-126222952D01*
X152519047Y-125603904D01*
X152757142Y-125222952D02*
X152804761Y-125175333D01*
X152852380Y-125222952D01*
X152804761Y-125270571D01*
X152757142Y-125222952D01*
X152852380Y-125222952D01*
X151852380Y-124556285D02*
X151852380Y-124461047D01*
X151900000Y-124365809D01*
X151947619Y-124318190D01*
X152042857Y-124270571D01*
X152233333Y-124222952D01*
X152471428Y-124222952D01*
X152661904Y-124270571D01*
X152757142Y-124318190D01*
X152804761Y-124365809D01*
X152852380Y-124461047D01*
X152852380Y-124556285D01*
X152804761Y-124651523D01*
X152757142Y-124699142D01*
X152661904Y-124746761D01*
X152471428Y-124794380D01*
X152233333Y-124794380D01*
X152042857Y-124746761D01*
X151947619Y-124699142D01*
X151900000Y-124651523D01*
X151852380Y-124556285D01*
X150058476Y-142817142D02*
X150010857Y-142912380D01*
X150010857Y-143102857D01*
X150058476Y-143198095D01*
X150153714Y-143293333D01*
X150248952Y-143340952D01*
X150439428Y-143340952D01*
X150534666Y-143293333D01*
X150629904Y-143198095D01*
X150677523Y-143102857D01*
X150677523Y-142912380D01*
X150629904Y-142817142D01*
X149677523Y-143007619D02*
X149725142Y-143245714D01*
X149868000Y-143483809D01*
X150106095Y-143626666D01*
X150344190Y-143674285D01*
X150582285Y-143626666D01*
X150820380Y-143483809D01*
X150963238Y-143245714D01*
X151010857Y-143007619D01*
X150963238Y-142769523D01*
X150820380Y-142531428D01*
X150582285Y-142388571D01*
X150344190Y-142340952D01*
X150106095Y-142388571D01*
X149868000Y-142531428D01*
X149725142Y-142769523D01*
X149677523Y-143007619D01*
X149915619Y-141198095D02*
X149868000Y-141150476D01*
X149820380Y-141055238D01*
X149820380Y-140817142D01*
X149868000Y-140721904D01*
X149915619Y-140674285D01*
X150010857Y-140626666D01*
X150106095Y-140626666D01*
X150248952Y-140674285D01*
X150820380Y-141245714D01*
X150820380Y-140626666D01*
X149820380Y-140007619D02*
X149820380Y-139912380D01*
X149868000Y-139817142D01*
X149915619Y-139769523D01*
X150010857Y-139721904D01*
X150201333Y-139674285D01*
X150439428Y-139674285D01*
X150629904Y-139721904D01*
X150725142Y-139769523D01*
X150772761Y-139817142D01*
X150820380Y-139912380D01*
X150820380Y-140007619D01*
X150772761Y-140102857D01*
X150725142Y-140150476D01*
X150629904Y-140198095D01*
X150439428Y-140245714D01*
X150201333Y-140245714D01*
X150010857Y-140198095D01*
X149915619Y-140150476D01*
X149868000Y-140102857D01*
X149820380Y-140007619D01*
X150820380Y-138721904D02*
X150820380Y-139293333D01*
X150820380Y-139007619D02*
X149820380Y-139007619D01*
X149963238Y-139102857D01*
X150058476Y-139198095D01*
X150106095Y-139293333D01*
X150820380Y-138245714D02*
X150820380Y-138055238D01*
X150772761Y-137960000D01*
X150725142Y-137912380D01*
X150582285Y-137817142D01*
X150391809Y-137769523D01*
X150010857Y-137769523D01*
X149915619Y-137817142D01*
X149868000Y-137864761D01*
X149820380Y-137960000D01*
X149820380Y-138150476D01*
X149868000Y-138245714D01*
X149915619Y-138293333D01*
X150010857Y-138340952D01*
X150248952Y-138340952D01*
X150344190Y-138293333D01*
X150391809Y-138245714D01*
X150439428Y-138150476D01*
X150439428Y-137960000D01*
X150391809Y-137864761D01*
X150344190Y-137817142D01*
X150248952Y-137769523D01*
X149820380Y-136721904D02*
X149820380Y-136150476D01*
X150820380Y-136436190D02*
X149820380Y-136436190D01*
X150820380Y-135674285D02*
X150772761Y-135769523D01*
X150725142Y-135817142D01*
X150629904Y-135864761D01*
X150344190Y-135864761D01*
X150248952Y-135817142D01*
X150201333Y-135769523D01*
X150153714Y-135674285D01*
X150153714Y-135531428D01*
X150201333Y-135436190D01*
X150248952Y-135388571D01*
X150344190Y-135340952D01*
X150629904Y-135340952D01*
X150725142Y-135388571D01*
X150772761Y-135436190D01*
X150820380Y-135531428D01*
X150820380Y-135674285D01*
X150820380Y-134912380D02*
X150153714Y-134912380D01*
X150344190Y-134912380D02*
X150248952Y-134864761D01*
X150201333Y-134817142D01*
X150153714Y-134721904D01*
X150153714Y-134626666D01*
X150772761Y-134340952D02*
X150820380Y-134245714D01*
X150820380Y-134055238D01*
X150772761Y-133960000D01*
X150677523Y-133912380D01*
X150629904Y-133912380D01*
X150534666Y-133960000D01*
X150487047Y-134055238D01*
X150487047Y-134198095D01*
X150439428Y-134293333D01*
X150344190Y-134340952D01*
X150296571Y-134340952D01*
X150201333Y-134293333D01*
X150153714Y-134198095D01*
X150153714Y-134055238D01*
X150201333Y-133960000D01*
X150153714Y-133626666D02*
X150153714Y-133245714D01*
X149820380Y-133483809D02*
X150677523Y-133483809D01*
X150772761Y-133436190D01*
X150820380Y-133340952D01*
X150820380Y-133245714D01*
X150772761Y-132531428D02*
X150820380Y-132626666D01*
X150820380Y-132817142D01*
X150772761Y-132912380D01*
X150677523Y-132960000D01*
X150296571Y-132960000D01*
X150201333Y-132912380D01*
X150153714Y-132817142D01*
X150153714Y-132626666D01*
X150201333Y-132531428D01*
X150296571Y-132483809D01*
X150391809Y-132483809D01*
X150487047Y-132960000D01*
X150153714Y-132055238D02*
X150820380Y-132055238D01*
X150248952Y-132055238D02*
X150201333Y-132007619D01*
X150153714Y-131912380D01*
X150153714Y-131769523D01*
X150201333Y-131674285D01*
X150296571Y-131626666D01*
X150820380Y-131626666D01*
X150820380Y-130388571D02*
X149820380Y-130388571D01*
X150820380Y-129817142D02*
X150248952Y-130245714D01*
X149820380Y-129817142D02*
X150391809Y-130388571D01*
X150153714Y-128960000D02*
X150820380Y-128960000D01*
X150153714Y-129388571D02*
X150677523Y-129388571D01*
X150772761Y-129340952D01*
X150820380Y-129245714D01*
X150820380Y-129102857D01*
X150772761Y-129007619D01*
X150725142Y-128960000D01*
X150820380Y-128483809D02*
X150153714Y-128483809D01*
X150344190Y-128483809D02*
X150248952Y-128436190D01*
X150201333Y-128388571D01*
X150153714Y-128293333D01*
X150153714Y-128198095D01*
X150820380Y-127864761D02*
X149820380Y-127864761D01*
X150201333Y-127864761D02*
X150153714Y-127769523D01*
X150153714Y-127579047D01*
X150201333Y-127483809D01*
X150248952Y-127436190D01*
X150344190Y-127388571D01*
X150629904Y-127388571D01*
X150725142Y-127436190D01*
X150772761Y-127483809D01*
X150820380Y-127579047D01*
X150820380Y-127769523D01*
X150772761Y-127864761D01*
X150820380Y-126531428D02*
X150296571Y-126531428D01*
X150201333Y-126579047D01*
X150153714Y-126674285D01*
X150153714Y-126864761D01*
X150201333Y-126960000D01*
X150772761Y-126531428D02*
X150820380Y-126626666D01*
X150820380Y-126864761D01*
X150772761Y-126960000D01*
X150677523Y-127007619D01*
X150582285Y-127007619D01*
X150487047Y-126960000D01*
X150439428Y-126864761D01*
X150439428Y-126626666D01*
X150391809Y-126531428D01*
X150820380Y-125626666D02*
X149820380Y-125626666D01*
X150772761Y-125626666D02*
X150820380Y-125721904D01*
X150820380Y-125912380D01*
X150772761Y-126007619D01*
X150725142Y-126055238D01*
X150629904Y-126102857D01*
X150344190Y-126102857D01*
X150248952Y-126055238D01*
X150201333Y-126007619D01*
X150153714Y-125912380D01*
X150153714Y-125721904D01*
X150201333Y-125626666D01*
X150153714Y-123626666D02*
X150439428Y-124388571D01*
X150725142Y-123626666D01*
X150820380Y-122721904D02*
X150296571Y-122721904D01*
X150201333Y-122769523D01*
X150153714Y-122864761D01*
X150153714Y-123055238D01*
X150201333Y-123150476D01*
X150772761Y-122721904D02*
X150820380Y-122817142D01*
X150820380Y-123055238D01*
X150772761Y-123150476D01*
X150677523Y-123198095D01*
X150582285Y-123198095D01*
X150487047Y-123150476D01*
X150439428Y-123055238D01*
X150439428Y-122817142D01*
X150391809Y-122721904D01*
X150820380Y-122245714D02*
X150153714Y-122245714D01*
X150248952Y-122245714D02*
X150201333Y-122198095D01*
X150153714Y-122102857D01*
X150153714Y-121960000D01*
X150201333Y-121864761D01*
X150296571Y-121817142D01*
X150820380Y-121817142D01*
X150296571Y-121817142D02*
X150201333Y-121769523D01*
X150153714Y-121674285D01*
X150153714Y-121531428D01*
X150201333Y-121436190D01*
X150296571Y-121388571D01*
X150820380Y-121388571D01*
X150820380Y-120912380D02*
X150153714Y-120912380D01*
X149820380Y-120912380D02*
X149868000Y-120960000D01*
X149915619Y-120912380D01*
X149868000Y-120864761D01*
X149820380Y-120912380D01*
X149915619Y-120912380D01*
X150153714Y-120007619D02*
X150963238Y-120007619D01*
X151058476Y-120055238D01*
X151106095Y-120102857D01*
X151153714Y-120198095D01*
X151153714Y-120340952D01*
X151106095Y-120436190D01*
X150772761Y-120007619D02*
X150820380Y-120102857D01*
X150820380Y-120293333D01*
X150772761Y-120388571D01*
X150725142Y-120436190D01*
X150629904Y-120483809D01*
X150344190Y-120483809D01*
X150248952Y-120436190D01*
X150201333Y-120388571D01*
X150153714Y-120293333D01*
X150153714Y-120102857D01*
X150201333Y-120007619D01*
X150820380Y-119102857D02*
X150296571Y-119102857D01*
X150201333Y-119150476D01*
X150153714Y-119245714D01*
X150153714Y-119436190D01*
X150201333Y-119531428D01*
X150772761Y-119102857D02*
X150820380Y-119198095D01*
X150820380Y-119436190D01*
X150772761Y-119531428D01*
X150677523Y-119579047D01*
X150582285Y-119579047D01*
X150487047Y-119531428D01*
X150439428Y-119436190D01*
X150439428Y-119198095D01*
X150391809Y-119102857D01*
X151153714Y-118340952D02*
X151153714Y-118579047D01*
X149725142Y-118579047D01*
X149725142Y-118340952D01*
X150820380Y-117531428D02*
X150296571Y-117531428D01*
X150201333Y-117579047D01*
X150153714Y-117674285D01*
X150153714Y-117864761D01*
X150201333Y-117960000D01*
X150772761Y-117531428D02*
X150820380Y-117626666D01*
X150820380Y-117864761D01*
X150772761Y-117960000D01*
X150677523Y-118007619D01*
X150582285Y-118007619D01*
X150487047Y-117960000D01*
X150439428Y-117864761D01*
X150439428Y-117626666D01*
X150391809Y-117531428D01*
X150153714Y-117198095D02*
X150153714Y-116817142D01*
X149820380Y-117055238D02*
X150677523Y-117055238D01*
X150772761Y-117007619D01*
X150820380Y-116912380D01*
X150820380Y-116817142D01*
X151153714Y-116579047D02*
X151153714Y-116340952D01*
X149725142Y-116340952D01*
X149725142Y-116579047D01*
X150153714Y-115960000D02*
X150153714Y-115579047D01*
X149820380Y-115817142D02*
X150677523Y-115817142D01*
X150772761Y-115769523D01*
X150820380Y-115674285D01*
X150820380Y-115579047D01*
X150820380Y-115245714D02*
X149820380Y-115245714D01*
X150439428Y-115150476D02*
X150820380Y-114864761D01*
X150153714Y-114864761D02*
X150534666Y-115245714D01*
X150439428Y-114436190D02*
X150439428Y-113674285D01*
X150153714Y-113293333D02*
X150820380Y-113102857D01*
X150344190Y-112912380D01*
X150820380Y-112721904D01*
X150153714Y-112531428D01*
X150772761Y-111769523D02*
X150820380Y-111864761D01*
X150820380Y-112055238D01*
X150772761Y-112150476D01*
X150677523Y-112198095D01*
X150296571Y-112198095D01*
X150201333Y-112150476D01*
X150153714Y-112055238D01*
X150153714Y-111864761D01*
X150201333Y-111769523D01*
X150296571Y-111721904D01*
X150391809Y-111721904D01*
X150487047Y-112198095D01*
X150820380Y-111293333D02*
X149820380Y-111293333D01*
X150201333Y-111293333D02*
X150153714Y-111198095D01*
X150153714Y-111007619D01*
X150201333Y-110912380D01*
X150248952Y-110864761D01*
X150344190Y-110817142D01*
X150629904Y-110817142D01*
X150725142Y-110864761D01*
X150772761Y-110912380D01*
X150820380Y-111007619D01*
X150820380Y-111198095D01*
X150772761Y-111293333D01*
X150820380Y-109960000D02*
X150296571Y-109960000D01*
X150201333Y-110007619D01*
X150153714Y-110102857D01*
X150153714Y-110293333D01*
X150201333Y-110388571D01*
X150772761Y-109960000D02*
X150820380Y-110055238D01*
X150820380Y-110293333D01*
X150772761Y-110388571D01*
X150677523Y-110436190D01*
X150582285Y-110436190D01*
X150487047Y-110388571D01*
X150439428Y-110293333D01*
X150439428Y-110055238D01*
X150391809Y-109960000D01*
X150820380Y-109483809D02*
X150153714Y-109483809D01*
X150344190Y-109483809D02*
X150248952Y-109436190D01*
X150201333Y-109388571D01*
X150153714Y-109293333D01*
X150153714Y-109198095D01*
X150153714Y-109007619D02*
X150153714Y-108626666D01*
X149820380Y-108864761D02*
X150677523Y-108864761D01*
X150772761Y-108817142D01*
X150820380Y-108721904D01*
X150820380Y-108626666D01*
X150725142Y-108293333D02*
X150772761Y-108245714D01*
X150820380Y-108293333D01*
X150772761Y-108340952D01*
X150725142Y-108293333D01*
X150820380Y-108293333D01*
X150820380Y-107388571D02*
X149820380Y-107388571D01*
X150772761Y-107388571D02*
X150820380Y-107483809D01*
X150820380Y-107674285D01*
X150772761Y-107769523D01*
X150725142Y-107817142D01*
X150629904Y-107864761D01*
X150344190Y-107864761D01*
X150248952Y-107817142D01*
X150201333Y-107769523D01*
X150153714Y-107674285D01*
X150153714Y-107483809D01*
X150201333Y-107388571D01*
X150772761Y-106531428D02*
X150820380Y-106626666D01*
X150820380Y-106817142D01*
X150772761Y-106912380D01*
X150677523Y-106960000D01*
X150296571Y-106960000D01*
X150201333Y-106912380D01*
X150153714Y-106817142D01*
X150153714Y-106626666D01*
X150201333Y-106531428D01*
X150296571Y-106483809D01*
X150391809Y-106483809D01*
X150487047Y-106960000D01*
X150153714Y-106055238D02*
X150439428Y-105293333D01*
X150725142Y-106055238D01*
X111704380Y-121943523D02*
X111228190Y-122276857D01*
X111704380Y-122514952D02*
X110704380Y-122514952D01*
X110704380Y-122134000D01*
X110752000Y-122038761D01*
X110799619Y-121991142D01*
X110894857Y-121943523D01*
X111037714Y-121943523D01*
X111132952Y-121991142D01*
X111180571Y-122038761D01*
X111228190Y-122134000D01*
X111228190Y-122514952D01*
X111656761Y-121134000D02*
X111704380Y-121229238D01*
X111704380Y-121419714D01*
X111656761Y-121514952D01*
X111561523Y-121562571D01*
X111180571Y-121562571D01*
X111085333Y-121514952D01*
X111037714Y-121419714D01*
X111037714Y-121229238D01*
X111085333Y-121134000D01*
X111180571Y-121086380D01*
X111275809Y-121086380D01*
X111371047Y-121562571D01*
X111037714Y-120753047D02*
X111704380Y-120514952D01*
X111037714Y-120276857D01*
X111609142Y-119895904D02*
X111656761Y-119848285D01*
X111704380Y-119895904D01*
X111656761Y-119943523D01*
X111609142Y-119895904D01*
X111704380Y-119895904D01*
X111704380Y-118134000D02*
X111704380Y-118705428D01*
X111704380Y-118419714D02*
X110704380Y-118419714D01*
X110847238Y-118514952D01*
X110942476Y-118610190D01*
X110990095Y-118705428D01*
X111609142Y-117705428D02*
X111656761Y-117657809D01*
X111704380Y-117705428D01*
X111656761Y-117753047D01*
X111609142Y-117705428D01*
X111704380Y-117705428D01*
X110704380Y-117038761D02*
X110704380Y-116943523D01*
X110752000Y-116848285D01*
X110799619Y-116800666D01*
X110894857Y-116753047D01*
X111085333Y-116705428D01*
X111323428Y-116705428D01*
X111513904Y-116753047D01*
X111609142Y-116800666D01*
X111656761Y-116848285D01*
X111704380Y-116943523D01*
X111704380Y-117038761D01*
X111656761Y-117134000D01*
X111609142Y-117181619D01*
X111513904Y-117229238D01*
X111323428Y-117276857D01*
X111085333Y-117276857D01*
X110894857Y-117229238D01*
X110799619Y-117181619D01*
X110752000Y-117134000D01*
X110704380Y-117038761D01*
D13*
X147788380Y-143793333D02*
X147788380Y-143221904D01*
X148788380Y-143507619D02*
X147788380Y-143507619D01*
X148788380Y-142412380D02*
X148788380Y-142888571D01*
X147788380Y-142888571D01*
X148216952Y-141936190D02*
X148169333Y-142031428D01*
X148121714Y-142079047D01*
X148026476Y-142126666D01*
X147978857Y-142126666D01*
X147883619Y-142079047D01*
X147836000Y-142031428D01*
X147788380Y-141936190D01*
X147788380Y-141745714D01*
X147836000Y-141650476D01*
X147883619Y-141602857D01*
X147978857Y-141555238D01*
X148026476Y-141555238D01*
X148121714Y-141602857D01*
X148169333Y-141650476D01*
X148216952Y-141745714D01*
X148216952Y-141936190D01*
X148264571Y-142031428D01*
X148312190Y-142079047D01*
X148407428Y-142126666D01*
X148597904Y-142126666D01*
X148693142Y-142079047D01*
X148740761Y-142031428D01*
X148788380Y-141936190D01*
X148788380Y-141745714D01*
X148740761Y-141650476D01*
X148693142Y-141602857D01*
X148597904Y-141555238D01*
X148407428Y-141555238D01*
X148312190Y-141602857D01*
X148264571Y-141650476D01*
X148216952Y-141745714D01*
X147788380Y-140698095D02*
X147788380Y-140888571D01*
X147836000Y-140983809D01*
X147883619Y-141031428D01*
X148026476Y-141126666D01*
X148216952Y-141174285D01*
X148597904Y-141174285D01*
X148693142Y-141126666D01*
X148740761Y-141079047D01*
X148788380Y-140983809D01*
X148788380Y-140793333D01*
X148740761Y-140698095D01*
X148693142Y-140650476D01*
X148597904Y-140602857D01*
X148359809Y-140602857D01*
X148264571Y-140650476D01*
X148216952Y-140698095D01*
X148169333Y-140793333D01*
X148169333Y-140983809D01*
X148216952Y-141079047D01*
X148264571Y-141126666D01*
X148359809Y-141174285D01*
X147788380Y-139745714D02*
X147788380Y-139936190D01*
X147836000Y-140031428D01*
X147883619Y-140079047D01*
X148026476Y-140174285D01*
X148216952Y-140221904D01*
X148597904Y-140221904D01*
X148693142Y-140174285D01*
X148740761Y-140126666D01*
X148788380Y-140031428D01*
X148788380Y-139840952D01*
X148740761Y-139745714D01*
X148693142Y-139698095D01*
X148597904Y-139650476D01*
X148359809Y-139650476D01*
X148264571Y-139698095D01*
X148216952Y-139745714D01*
X148169333Y-139840952D01*
X148169333Y-140031428D01*
X148216952Y-140126666D01*
X148264571Y-140174285D01*
X148359809Y-140221904D01*
X148502666Y-138507619D02*
X148502666Y-138031428D01*
X148788380Y-138602857D02*
X147788380Y-138269523D01*
X148788380Y-137936190D01*
X148788380Y-137602857D02*
X148121714Y-137602857D01*
X148216952Y-137602857D02*
X148169333Y-137555238D01*
X148121714Y-137460000D01*
X148121714Y-137317142D01*
X148169333Y-137221904D01*
X148264571Y-137174285D01*
X148788380Y-137174285D01*
X148264571Y-137174285D02*
X148169333Y-137126666D01*
X148121714Y-137031428D01*
X148121714Y-136888571D01*
X148169333Y-136793333D01*
X148264571Y-136745714D01*
X148788380Y-136745714D01*
X148788380Y-136269523D02*
X148121714Y-136269523D01*
X147788380Y-136269523D02*
X147836000Y-136317142D01*
X147883619Y-136269523D01*
X147836000Y-136221904D01*
X147788380Y-136269523D01*
X147883619Y-136269523D01*
X148121714Y-135364761D02*
X148931238Y-135364761D01*
X149026476Y-135412380D01*
X149074095Y-135460000D01*
X149121714Y-135555238D01*
X149121714Y-135698095D01*
X149074095Y-135793333D01*
X148740761Y-135364761D02*
X148788380Y-135460000D01*
X148788380Y-135650476D01*
X148740761Y-135745714D01*
X148693142Y-135793333D01*
X148597904Y-135840952D01*
X148312190Y-135840952D01*
X148216952Y-135793333D01*
X148169333Y-135745714D01*
X148121714Y-135650476D01*
X148121714Y-135460000D01*
X148169333Y-135364761D01*
X148788380Y-134460000D02*
X148264571Y-134460000D01*
X148169333Y-134507619D01*
X148121714Y-134602857D01*
X148121714Y-134793333D01*
X148169333Y-134888571D01*
X148740761Y-134460000D02*
X148788380Y-134555238D01*
X148788380Y-134793333D01*
X148740761Y-134888571D01*
X148645523Y-134936190D01*
X148550285Y-134936190D01*
X148455047Y-134888571D01*
X148407428Y-134793333D01*
X148407428Y-134555238D01*
X148359809Y-134460000D01*
X148788380Y-133221904D02*
X147788380Y-133221904D01*
X148788380Y-132650476D02*
X148216952Y-133079047D01*
X147788380Y-132650476D02*
X148359809Y-133221904D01*
X148788380Y-132221904D02*
X148121714Y-132221904D01*
X147788380Y-132221904D02*
X147836000Y-132269523D01*
X147883619Y-132221904D01*
X147836000Y-132174285D01*
X147788380Y-132221904D01*
X147883619Y-132221904D01*
X148740761Y-131317142D02*
X148788380Y-131412380D01*
X148788380Y-131602857D01*
X148740761Y-131698095D01*
X148693142Y-131745714D01*
X148597904Y-131793333D01*
X148312190Y-131793333D01*
X148216952Y-131745714D01*
X148169333Y-131698095D01*
X148121714Y-131602857D01*
X148121714Y-131412380D01*
X148169333Y-131317142D01*
X148788380Y-130888571D02*
X147788380Y-130888571D01*
X148407428Y-130793333D02*
X148788380Y-130507619D01*
X148121714Y-130507619D02*
X148502666Y-130888571D01*
X148740761Y-130126666D02*
X148788380Y-130031428D01*
X148788380Y-129840952D01*
X148740761Y-129745714D01*
X148645523Y-129698095D01*
X148597904Y-129698095D01*
X148502666Y-129745714D01*
X148455047Y-129840952D01*
X148455047Y-129983809D01*
X148407428Y-130079047D01*
X148312190Y-130126666D01*
X148264571Y-130126666D01*
X148169333Y-130079047D01*
X148121714Y-129983809D01*
X148121714Y-129840952D01*
X148169333Y-129745714D01*
X148121714Y-129412380D02*
X148121714Y-129031428D01*
X147788380Y-129269523D02*
X148645523Y-129269523D01*
X148740761Y-129221904D01*
X148788380Y-129126666D01*
X148788380Y-129031428D01*
X148788380Y-128269523D02*
X148264571Y-128269523D01*
X148169333Y-128317142D01*
X148121714Y-128412380D01*
X148121714Y-128602857D01*
X148169333Y-128698095D01*
X148740761Y-128269523D02*
X148788380Y-128364761D01*
X148788380Y-128602857D01*
X148740761Y-128698095D01*
X148645523Y-128745714D01*
X148550285Y-128745714D01*
X148455047Y-128698095D01*
X148407428Y-128602857D01*
X148407428Y-128364761D01*
X148359809Y-128269523D01*
X148788380Y-127793333D02*
X148121714Y-127793333D01*
X148312190Y-127793333D02*
X148216952Y-127745714D01*
X148169333Y-127698095D01*
X148121714Y-127602857D01*
X148121714Y-127507619D01*
X148121714Y-127317142D02*
X148121714Y-126936190D01*
X147788380Y-127174285D02*
X148645523Y-127174285D01*
X148740761Y-127126666D01*
X148788380Y-127031428D01*
X148788380Y-126936190D01*
X148264571Y-125507619D02*
X148264571Y-125840952D01*
X148788380Y-125840952D02*
X147788380Y-125840952D01*
X147788380Y-125364761D01*
X148788380Y-124840952D02*
X148740761Y-124936190D01*
X148645523Y-124983809D01*
X147788380Y-124983809D01*
X148788380Y-124031428D02*
X148264571Y-124031428D01*
X148169333Y-124079047D01*
X148121714Y-124174285D01*
X148121714Y-124364761D01*
X148169333Y-124460000D01*
X148740761Y-124031428D02*
X148788380Y-124126666D01*
X148788380Y-124364761D01*
X148740761Y-124460000D01*
X148645523Y-124507619D01*
X148550285Y-124507619D01*
X148455047Y-124460000D01*
X148407428Y-124364761D01*
X148407428Y-124126666D01*
X148359809Y-124031428D01*
X148740761Y-123602857D02*
X148788380Y-123507619D01*
X148788380Y-123317142D01*
X148740761Y-123221904D01*
X148645523Y-123174285D01*
X148597904Y-123174285D01*
X148502666Y-123221904D01*
X148455047Y-123317142D01*
X148455047Y-123460000D01*
X148407428Y-123555238D01*
X148312190Y-123602857D01*
X148264571Y-123602857D01*
X148169333Y-123555238D01*
X148121714Y-123460000D01*
X148121714Y-123317142D01*
X148169333Y-123221904D01*
X148788380Y-122745714D02*
X147788380Y-122745714D01*
X148788380Y-122317142D02*
X148264571Y-122317142D01*
X148169333Y-122364761D01*
X148121714Y-122460000D01*
X148121714Y-122602857D01*
X148169333Y-122698095D01*
X148216952Y-122745714D01*
X148788380Y-121079047D02*
X147788380Y-121079047D01*
X147788380Y-120698095D01*
X147836000Y-120602857D01*
X147883619Y-120555238D01*
X147978857Y-120507619D01*
X148121714Y-120507619D01*
X148216952Y-120555238D01*
X148264571Y-120602857D01*
X148312190Y-120698095D01*
X148312190Y-121079047D01*
X148788380Y-120079047D02*
X148121714Y-120079047D01*
X148312190Y-120079047D02*
X148216952Y-120031428D01*
X148169333Y-119983809D01*
X148121714Y-119888571D01*
X148121714Y-119793333D01*
X148788380Y-119317142D02*
X148740761Y-119412380D01*
X148693142Y-119460000D01*
X148597904Y-119507619D01*
X148312190Y-119507619D01*
X148216952Y-119460000D01*
X148169333Y-119412380D01*
X148121714Y-119317142D01*
X148121714Y-119174285D01*
X148169333Y-119079047D01*
X148216952Y-119031428D01*
X148312190Y-118983809D01*
X148597904Y-118983809D01*
X148693142Y-119031428D01*
X148740761Y-119079047D01*
X148788380Y-119174285D01*
X148788380Y-119317142D01*
X148121714Y-118126666D02*
X148931238Y-118126666D01*
X149026476Y-118174285D01*
X149074095Y-118221904D01*
X149121714Y-118317142D01*
X149121714Y-118460000D01*
X149074095Y-118555238D01*
X148740761Y-118126666D02*
X148788380Y-118221904D01*
X148788380Y-118412380D01*
X148740761Y-118507619D01*
X148693142Y-118555238D01*
X148597904Y-118602857D01*
X148312190Y-118602857D01*
X148216952Y-118555238D01*
X148169333Y-118507619D01*
X148121714Y-118412380D01*
X148121714Y-118221904D01*
X148169333Y-118126666D01*
X148788380Y-117650476D02*
X148121714Y-117650476D01*
X148312190Y-117650476D02*
X148216952Y-117602857D01*
X148169333Y-117555238D01*
X148121714Y-117460000D01*
X148121714Y-117364761D01*
X148788380Y-116602857D02*
X148264571Y-116602857D01*
X148169333Y-116650476D01*
X148121714Y-116745714D01*
X148121714Y-116936190D01*
X148169333Y-117031428D01*
X148740761Y-116602857D02*
X148788380Y-116698095D01*
X148788380Y-116936190D01*
X148740761Y-117031428D01*
X148645523Y-117079047D01*
X148550285Y-117079047D01*
X148455047Y-117031428D01*
X148407428Y-116936190D01*
X148407428Y-116698095D01*
X148359809Y-116602857D01*
X148788380Y-116126666D02*
X148121714Y-116126666D01*
X148216952Y-116126666D02*
X148169333Y-116079047D01*
X148121714Y-115983809D01*
X148121714Y-115840952D01*
X148169333Y-115745714D01*
X148264571Y-115698095D01*
X148788380Y-115698095D01*
X148264571Y-115698095D02*
X148169333Y-115650476D01*
X148121714Y-115555238D01*
X148121714Y-115412380D01*
X148169333Y-115317142D01*
X148264571Y-115269523D01*
X148788380Y-115269523D01*
X148788380Y-114793333D02*
X148121714Y-114793333D01*
X148216952Y-114793333D02*
X148169333Y-114745714D01*
X148121714Y-114650476D01*
X148121714Y-114507619D01*
X148169333Y-114412380D01*
X148264571Y-114364761D01*
X148788380Y-114364761D01*
X148264571Y-114364761D02*
X148169333Y-114317142D01*
X148121714Y-114221904D01*
X148121714Y-114079047D01*
X148169333Y-113983809D01*
X148264571Y-113936190D01*
X148788380Y-113936190D01*
X148788380Y-113460000D02*
X148121714Y-113460000D01*
X147788380Y-113460000D02*
X147836000Y-113507619D01*
X147883619Y-113460000D01*
X147836000Y-113412380D01*
X147788380Y-113460000D01*
X147883619Y-113460000D01*
X148121714Y-112983809D02*
X148788380Y-112983809D01*
X148216952Y-112983809D02*
X148169333Y-112936190D01*
X148121714Y-112840952D01*
X148121714Y-112698095D01*
X148169333Y-112602857D01*
X148264571Y-112555238D01*
X148788380Y-112555238D01*
X148121714Y-111650476D02*
X148931238Y-111650476D01*
X149026476Y-111698095D01*
X149074095Y-111745714D01*
X149121714Y-111840952D01*
X149121714Y-111983809D01*
X149074095Y-112079047D01*
X148740761Y-111650476D02*
X148788380Y-111745714D01*
X148788380Y-111936190D01*
X148740761Y-112031428D01*
X148693142Y-112079047D01*
X148597904Y-112126666D01*
X148312190Y-112126666D01*
X148216952Y-112079047D01*
X148169333Y-112031428D01*
X148121714Y-111936190D01*
X148121714Y-111745714D01*
X148169333Y-111650476D01*
X148502666Y-110460000D02*
X148502666Y-109983809D01*
X148788380Y-110555238D02*
X147788380Y-110221904D01*
X148788380Y-109888571D01*
X148788380Y-109126666D02*
X147788380Y-109126666D01*
X148740761Y-109126666D02*
X148788380Y-109221904D01*
X148788380Y-109412380D01*
X148740761Y-109507619D01*
X148693142Y-109555238D01*
X148597904Y-109602857D01*
X148312190Y-109602857D01*
X148216952Y-109555238D01*
X148169333Y-109507619D01*
X148121714Y-109412380D01*
X148121714Y-109221904D01*
X148169333Y-109126666D01*
X148788380Y-108221904D02*
X148264571Y-108221904D01*
X148169333Y-108269523D01*
X148121714Y-108364761D01*
X148121714Y-108555238D01*
X148169333Y-108650476D01*
X148740761Y-108221904D02*
X148788380Y-108317142D01*
X148788380Y-108555238D01*
X148740761Y-108650476D01*
X148645523Y-108698095D01*
X148550285Y-108698095D01*
X148455047Y-108650476D01*
X148407428Y-108555238D01*
X148407428Y-108317142D01*
X148359809Y-108221904D01*
X148121714Y-107745714D02*
X149121714Y-107745714D01*
X148169333Y-107745714D02*
X148121714Y-107650476D01*
X148121714Y-107460000D01*
X148169333Y-107364761D01*
X148216952Y-107317142D01*
X148312190Y-107269523D01*
X148597904Y-107269523D01*
X148693142Y-107317142D01*
X148740761Y-107364761D01*
X148788380Y-107460000D01*
X148788380Y-107650476D01*
X148740761Y-107745714D01*
X148121714Y-106983809D02*
X148121714Y-106602857D01*
X147788380Y-106840952D02*
X148645523Y-106840952D01*
X148740761Y-106793333D01*
X148788380Y-106698095D01*
X148788380Y-106602857D01*
X148740761Y-105888571D02*
X148788380Y-105983809D01*
X148788380Y-106174285D01*
X148740761Y-106269523D01*
X148645523Y-106317142D01*
X148264571Y-106317142D01*
X148169333Y-106269523D01*
X148121714Y-106174285D01*
X148121714Y-105983809D01*
X148169333Y-105888571D01*
X148264571Y-105840952D01*
X148359809Y-105840952D01*
X148455047Y-106317142D01*
X148788380Y-105412380D02*
X148121714Y-105412380D01*
X148312190Y-105412380D02*
X148216952Y-105364761D01*
X148169333Y-105317142D01*
X148121714Y-105221904D01*
X148121714Y-105126666D01*
D11*
X102362000Y-98298000D02*
X102362000Y-96520000D01*
X102362000Y-96012000D02*
X102362000Y-94234000D01*
D14*
X102576380Y-95876952D02*
X103576380Y-95638857D01*
X102862095Y-95448380D01*
X103576380Y-95257904D01*
X102576380Y-95019809D01*
X103052571Y-94638857D02*
X103052571Y-94305523D01*
X103576380Y-94162666D02*
X103576380Y-94638857D01*
X102576380Y-94638857D01*
X102576380Y-94162666D01*
X103576380Y-97726476D02*
X103100190Y-98059809D01*
X103576380Y-98297904D02*
X102576380Y-98297904D01*
X102576380Y-97916952D01*
X102624000Y-97821714D01*
X102671619Y-97774095D01*
X102766857Y-97726476D01*
X102909714Y-97726476D01*
X103004952Y-97774095D01*
X103052571Y-97821714D01*
X103100190Y-97916952D01*
X103100190Y-98297904D01*
X103576380Y-97297904D02*
X102576380Y-97297904D01*
X102576380Y-96916952D01*
X102624000Y-96821714D01*
X102671619Y-96774095D01*
X102766857Y-96726476D01*
X102909714Y-96726476D01*
X103004952Y-96774095D01*
X103052571Y-96821714D01*
X103100190Y-96916952D01*
X103100190Y-97297904D01*
X102576380Y-104457333D02*
X103576380Y-104124000D01*
X102576380Y-103790666D01*
X103576380Y-103457333D02*
X102576380Y-103457333D01*
X102576380Y-103076380D01*
X102624000Y-102981142D01*
X102671619Y-102933523D01*
X102766857Y-102885904D01*
X102909714Y-102885904D01*
X103004952Y-102933523D01*
X103052571Y-102981142D01*
X103100190Y-103076380D01*
X103100190Y-103457333D01*
X103576380Y-102457333D02*
X102576380Y-102457333D01*
X102576380Y-102076380D01*
X102624000Y-101981142D01*
X102671619Y-101933523D01*
X102766857Y-101885904D01*
X102909714Y-101885904D01*
X103004952Y-101933523D01*
X103052571Y-101981142D01*
X103100190Y-102076380D01*
X103100190Y-102457333D01*
X109753495Y-102166800D02*
X109658257Y-102119180D01*
X109515400Y-102119180D01*
X109372542Y-102166800D01*
X109277304Y-102262038D01*
X109229685Y-102357276D01*
X109182066Y-102547752D01*
X109182066Y-102690609D01*
X109229685Y-102881085D01*
X109277304Y-102976323D01*
X109372542Y-103071561D01*
X109515400Y-103119180D01*
X109610638Y-103119180D01*
X109753495Y-103071561D01*
X109801114Y-103023942D01*
X109801114Y-102690609D01*
X109610638Y-102690609D01*
X110229685Y-103119180D02*
X110229685Y-102119180D01*
X110801114Y-103119180D01*
X110801114Y-102119180D01*
X111277304Y-103119180D02*
X111277304Y-102119180D01*
X111515400Y-102119180D01*
X111658257Y-102166800D01*
X111753495Y-102262038D01*
X111801114Y-102357276D01*
X111848733Y-102547752D01*
X111848733Y-102690609D01*
X111801114Y-102881085D01*
X111753495Y-102976323D01*
X111658257Y-103071561D01*
X111515400Y-103119180D01*
X111277304Y-103119180D01*
X109299523Y-100115666D02*
X109775714Y-100115666D01*
X109204285Y-100401380D02*
X109537619Y-99401380D01*
X109870952Y-100401380D01*
X110728095Y-100401380D02*
X110156666Y-100401380D01*
X110442380Y-100401380D02*
X110442380Y-99401380D01*
X110347142Y-99544238D01*
X110251904Y-99639476D01*
X110156666Y-99687095D01*
X111204285Y-100401380D02*
X111394761Y-100401380D01*
X111490000Y-100353761D01*
X111537619Y-100306142D01*
X111632857Y-100163285D01*
X111680476Y-99972809D01*
X111680476Y-99591857D01*
X111632857Y-99496619D01*
X111585238Y-99449000D01*
X111490000Y-99401380D01*
X111299523Y-99401380D01*
X111204285Y-99449000D01*
X111156666Y-99496619D01*
X111109047Y-99591857D01*
X111109047Y-99829952D01*
X111156666Y-99925190D01*
X111204285Y-99972809D01*
X111299523Y-100020428D01*
X111490000Y-100020428D01*
X111585238Y-99972809D01*
X111632857Y-99925190D01*
X111680476Y-99829952D01*
X109299523Y-94908666D02*
X109775714Y-94908666D01*
X109204285Y-95194380D02*
X109537619Y-94194380D01*
X109870952Y-95194380D01*
X110728095Y-95194380D02*
X110156666Y-95194380D01*
X110442380Y-95194380D02*
X110442380Y-94194380D01*
X110347142Y-94337238D01*
X110251904Y-94432476D01*
X110156666Y-94480095D01*
X111299523Y-94622952D02*
X111204285Y-94575333D01*
X111156666Y-94527714D01*
X111109047Y-94432476D01*
X111109047Y-94384857D01*
X111156666Y-94289619D01*
X111204285Y-94242000D01*
X111299523Y-94194380D01*
X111490000Y-94194380D01*
X111585238Y-94242000D01*
X111632857Y-94289619D01*
X111680476Y-94384857D01*
X111680476Y-94432476D01*
X111632857Y-94527714D01*
X111585238Y-94575333D01*
X111490000Y-94622952D01*
X111299523Y-94622952D01*
X111204285Y-94670571D01*
X111156666Y-94718190D01*
X111109047Y-94813428D01*
X111109047Y-95003904D01*
X111156666Y-95099142D01*
X111204285Y-95146761D01*
X111299523Y-95194380D01*
X111490000Y-95194380D01*
X111585238Y-95146761D01*
X111632857Y-95099142D01*
X111680476Y-95003904D01*
X111680476Y-94813428D01*
X111632857Y-94718190D01*
X111585238Y-94670571D01*
X111490000Y-94622952D01*
X135088380Y-121268285D02*
X135088380Y-120696857D01*
X136088380Y-120982571D02*
X135088380Y-120982571D01*
X136040761Y-119982571D02*
X136088380Y-120077809D01*
X136088380Y-120268285D01*
X136040761Y-120363523D01*
X135945523Y-120411142D01*
X135564571Y-120411142D01*
X135469333Y-120363523D01*
X135421714Y-120268285D01*
X135421714Y-120077809D01*
X135469333Y-119982571D01*
X135564571Y-119934952D01*
X135659809Y-119934952D01*
X135755047Y-120411142D01*
X136040761Y-119554000D02*
X136088380Y-119458761D01*
X136088380Y-119268285D01*
X136040761Y-119173047D01*
X135945523Y-119125428D01*
X135897904Y-119125428D01*
X135802666Y-119173047D01*
X135755047Y-119268285D01*
X135755047Y-119411142D01*
X135707428Y-119506380D01*
X135612190Y-119554000D01*
X135564571Y-119554000D01*
X135469333Y-119506380D01*
X135421714Y-119411142D01*
X135421714Y-119268285D01*
X135469333Y-119173047D01*
X135421714Y-118839714D02*
X135421714Y-118458761D01*
X135088380Y-118696857D02*
X135945523Y-118696857D01*
X136040761Y-118649238D01*
X136088380Y-118554000D01*
X136088380Y-118458761D01*
X136040761Y-118173047D02*
X136088380Y-118077809D01*
X136088380Y-117887333D01*
X136040761Y-117792095D01*
X135945523Y-117744476D01*
X135897904Y-117744476D01*
X135802666Y-117792095D01*
X135755047Y-117887333D01*
X135755047Y-118030190D01*
X135707428Y-118125428D01*
X135612190Y-118173047D01*
X135564571Y-118173047D01*
X135469333Y-118125428D01*
X135421714Y-118030190D01*
X135421714Y-117887333D01*
X135469333Y-117792095D01*
X136088380Y-117173047D02*
X136040761Y-117268285D01*
X135993142Y-117315904D01*
X135897904Y-117363523D01*
X135612190Y-117363523D01*
X135516952Y-117315904D01*
X135469333Y-117268285D01*
X135421714Y-117173047D01*
X135421714Y-117030190D01*
X135469333Y-116934952D01*
X135516952Y-116887333D01*
X135612190Y-116839714D01*
X135897904Y-116839714D01*
X135993142Y-116887333D01*
X136040761Y-116934952D01*
X136088380Y-117030190D01*
X136088380Y-117173047D01*
X136040761Y-115982571D02*
X136088380Y-116077809D01*
X136088380Y-116268285D01*
X136040761Y-116363523D01*
X135993142Y-116411142D01*
X135897904Y-116458761D01*
X135612190Y-116458761D01*
X135516952Y-116411142D01*
X135469333Y-116363523D01*
X135421714Y-116268285D01*
X135421714Y-116077809D01*
X135469333Y-115982571D01*
X136088380Y-115554000D02*
X135088380Y-115554000D01*
X135707428Y-115458761D02*
X136088380Y-115173047D01*
X135421714Y-115173047D02*
X135802666Y-115554000D01*
X136040761Y-114363523D02*
X136088380Y-114458761D01*
X136088380Y-114649238D01*
X136040761Y-114744476D01*
X135945523Y-114792095D01*
X135564571Y-114792095D01*
X135469333Y-114744476D01*
X135421714Y-114649238D01*
X135421714Y-114458761D01*
X135469333Y-114363523D01*
X135564571Y-114315904D01*
X135659809Y-114315904D01*
X135755047Y-114792095D01*
X135421714Y-114030190D02*
X135421714Y-113649238D01*
X135088380Y-113887333D02*
X135945523Y-113887333D01*
X136040761Y-113839714D01*
X136088380Y-113744476D01*
X136088380Y-113649238D01*
X135421714Y-112125428D02*
X136088380Y-112125428D01*
X135040761Y-112363523D02*
X135755047Y-112601619D01*
X135755047Y-111982571D01*
X135516952Y-111458761D02*
X135469333Y-111554000D01*
X135421714Y-111601619D01*
X135326476Y-111649238D01*
X135278857Y-111649238D01*
X135183619Y-111601619D01*
X135136000Y-111554000D01*
X135088380Y-111458761D01*
X135088380Y-111268285D01*
X135136000Y-111173047D01*
X135183619Y-111125428D01*
X135278857Y-111077809D01*
X135326476Y-111077809D01*
X135421714Y-111125428D01*
X135469333Y-111173047D01*
X135516952Y-111268285D01*
X135516952Y-111458761D01*
X135564571Y-111554000D01*
X135612190Y-111601619D01*
X135707428Y-111649238D01*
X135897904Y-111649238D01*
X135993142Y-111601619D01*
X136040761Y-111554000D01*
X136088380Y-111458761D01*
X136088380Y-111268285D01*
X136040761Y-111173047D01*
X135993142Y-111125428D01*
X135897904Y-111077809D01*
X135707428Y-111077809D01*
X135612190Y-111125428D01*
X135564571Y-111173047D01*
X135516952Y-111268285D01*
X136088380Y-109887333D02*
X135088380Y-109887333D01*
X135088380Y-109506380D01*
X135136000Y-109411142D01*
X135183619Y-109363523D01*
X135278857Y-109315904D01*
X135421714Y-109315904D01*
X135516952Y-109363523D01*
X135564571Y-109411142D01*
X135612190Y-109506380D01*
X135612190Y-109887333D01*
X136088380Y-108887333D02*
X135421714Y-108887333D01*
X135088380Y-108887333D02*
X135136000Y-108934952D01*
X135183619Y-108887333D01*
X135136000Y-108839714D01*
X135088380Y-108887333D01*
X135183619Y-108887333D01*
X135421714Y-108411142D02*
X136088380Y-108411142D01*
X135516952Y-108411142D02*
X135469333Y-108363523D01*
X135421714Y-108268285D01*
X135421714Y-108125428D01*
X135469333Y-108030190D01*
X135564571Y-107982571D01*
X136088380Y-107982571D01*
D11*
X103826000Y-93412000D02*
X105156000Y-93412000D01*
X103826000Y-94742000D02*
X103826000Y-93412000D01*
X106426000Y-93412000D02*
X109026000Y-93412000D01*
X106426000Y-96012000D02*
X106426000Y-93412000D01*
X103826000Y-96012000D02*
X106426000Y-96012000D01*
X109026000Y-93412000D02*
X109026000Y-103692000D01*
X103826000Y-96012000D02*
X103826000Y-103692000D01*
X103826000Y-103692000D02*
X109026000Y-103692000D01*
X122558000Y-88392000D02*
X122558000Y-85852000D01*
X125858000Y-76462000D02*
X125858000Y-78722000D01*
X123578000Y-76462000D02*
X123578000Y-78322000D01*
X146678000Y-76462000D02*
X123578000Y-76462000D01*
X146671000Y-149987000D02*
X146678000Y-76462000D01*
X123571000Y-149987000D02*
X146671000Y-149987000D01*
X123578000Y-83222000D02*
X123571000Y-149987000D01*
X125208000Y-80772000D02*
G75*
G03X125208000Y-80772000I-900000J0D01*
G01*
X126858000Y-80772000D02*
G75*
G03X126858000Y-80772000I-2550000J0D01*
G01*
D14*
X106092666Y-91864380D02*
X106092666Y-92578666D01*
X106045047Y-92721523D01*
X105949809Y-92816761D01*
X105806952Y-92864380D01*
X105711714Y-92864380D01*
X106997428Y-92197714D02*
X106997428Y-92864380D01*
X106759333Y-91816761D02*
X106521238Y-92531047D01*
X107140285Y-92531047D01*
X134540666Y-87336380D02*
X134540666Y-88050666D01*
X134493047Y-88193523D01*
X134397809Y-88288761D01*
X134254952Y-88336380D01*
X134159714Y-88336380D01*
X134921619Y-87336380D02*
X135540666Y-87336380D01*
X135207333Y-87717333D01*
X135350190Y-87717333D01*
X135445428Y-87764952D01*
X135493047Y-87812571D01*
X135540666Y-87907809D01*
X135540666Y-88145904D01*
X135493047Y-88241142D01*
X135445428Y-88288761D01*
X135350190Y-88336380D01*
X135064476Y-88336380D01*
X134969238Y-88288761D01*
X134921619Y-88241142D01*
M02*
