EESchema Schematic File Version 4
LIBS:28F160Prog-cache
EELAYER 30 0
EELAYER END
$Descr A4 11693 8268
encoding utf-8
Sheet 1 1
Title "TL866 Amiga Kickstart Flash Programming Adapter"
Date "2019-12-23"
Rev "1.0"
Comp ""
Comment1 ""
Comment2 ""
Comment3 "License: Creative Commons Attribution-ShareAlike 4.0 International (CC BY-SA 4.0)"
Comment4 "© 2019 Torsten Kurbad <amiga[at]tk-webart.de>"
$EndDescr
$Comp
L Connector_Generic:Conn_02x12_Odd_Even J1
U 1 1 5DFF76E0
P 1950 3650
F 0 "J1" H 2000 4367 50  0000 C CNN
F 1 "Conn_02x12_Odd_Even" H 2000 4276 50  0000 C CNN
F 2 "Connector_PinSocket_2.54mm:PinSocket_2x12_P2.54mm_Vertical" H 1950 3650 50  0000 C CNN
F 3 "~" H 1950 3650 50  0001 C CNN
	1    1950 3650
	-1   0    0    -1  
$EndComp
$Comp
L Connector_Generic:Conn_02x12_Odd_Even J2
U 1 1 5DFF8709
P 6400 3750
F 0 "J2" H 6450 2925 50  0000 C CNN
F 1 "Conn_02x12_Odd_Even" H 6450 3016 50  0000 C CNN
F 2 "Connector_PinSocket_2.54mm:PinSocket_2x12_P2.54mm_Vertical" H 6400 3750 50  0001 C CNN
F 3 "~" H 6400 3750 50  0001 C CNN
	1    6400 3750
	1    0    0    1   
$EndComp
$Comp
L 28F160Prog:27C160_ZIF48_Socket J3
U 1 1 5E00B6A1
P 4300 3600
F 0 "J3" H 4413 5070 45  0000 C CNN
F 1 "27C160_ZIF48_Socket" H 4300 3600 45  0001 L BNN
F 2 "28F160Prog:DIP_Socket-48_W11.9_W12.7_W15.24_W17.78_W18.5_3M_242-1281-00-0602J" H 4330 3750 20  0001 C CNN
F 3 "" H 4300 3600 50  0001 C CNN
	1    4300 3600
	1    0    0    -1  
$EndComp
$Comp
L Connector_Generic:Conn_02x04_Odd_Even J4
U 1 1 5E00DEE2
P 2700 1650
F 0 "J4" V 2704 1830 50  0000 L CNN
F 1 "Conn_02x04_Odd_Even" V 2700 550 50  0000 L CNN
F 2 "Connector_PinHeader_2.54mm:PinHeader_2x04_P2.54mm_Vertical" H 2700 1650 50  0001 C CNN
F 3 "~" H 2700 1650 50  0001 C CNN
	1    2700 1650
	0    1    1    0   
$EndComp
$Comp
L power:GND #PWR0101
U 1 1 5E014D90
P 2700 1950
F 0 "#PWR0101" H 2700 1700 50  0001 C CNN
F 1 "GND" H 2700 1950 50  0000 C CNN
F 2 "" H 2700 1950 50  0001 C CNN
F 3 "" H 2700 1950 50  0001 C CNN
	1    2700 1950
	1    0    0    -1  
$EndComp
Wire Wire Line
	3700 3700 3550 3700
Wire Wire Line
	4900 3700 5050 3700
$Comp
L power:GND #PWR0102
U 1 1 5E015C58
P 5050 3700
F 0 "#PWR0102" H 5050 3450 50  0001 C CNN
F 1 "GND" H 5055 3527 50  0000 C CNN
F 2 "" H 5050 3700 50  0001 C CNN
F 3 "" H 5050 3700 50  0001 C CNN
	1    5050 3700
	1    0    0    -1  
$EndComp
$Comp
L power:GND #PWR0103
U 1 1 5E0161E4
P 3550 3700
F 0 "#PWR0103" H 3550 3450 50  0001 C CNN
F 1 "GND" H 3555 3527 50  0000 C CNN
F 2 "" H 3550 3700 50  0001 C CNN
F 3 "" H 3550 3700 50  0001 C CNN
	1    3550 3700
	1    0    0    -1  
$EndComp
$Comp
L power:VCC #PWR0104
U 1 1 5E016B60
P 5300 5000
F 0 "#PWR0104" H 5300 4850 50  0001 C CNN
F 1 "VCC" H 5317 5173 50  0000 C CNN
F 2 "" H 5300 5000 50  0001 C CNN
F 3 "" H 5300 5000 50  0001 C CNN
	1    5300 5000
	1    0    0    -1  
$EndComp
Wire Wire Line
	2800 2600 3700 2600
Wire Wire Line
	2800 1950 2800 2600
Wire Wire Line
	5000 2600 4900 2600
Wire Wire Line
	6900 2850 6900 3150
Wire Wire Line
	6900 3150 6700 3150
$Comp
L power:GND #PWR0105
U 1 1 5E01E0D4
P 7800 3250
F 0 "#PWR0105" H 7800 3000 50  0001 C CNN
F 1 "GND" H 7805 3077 50  0000 C CNN
F 2 "" H 7800 3250 50  0001 C CNN
F 3 "" H 7800 3250 50  0001 C CNN
	1    7800 3250
	1    0    0    -1  
$EndComp
Wire Wire Line
	4900 3900 5350 3900
Wire Wire Line
	5350 3900 5350 4400
Wire Wire Line
	7150 4400 7150 3350
Wire Wire Line
	7150 3350 6700 3350
Wire Wire Line
	4900 4000 5500 4000
Wire Wire Line
	5500 4000 5500 3350
Wire Wire Line
	4900 4100 5300 4100
Wire Wire Line
	5300 4100 5300 4450
Wire Wire Line
	7250 4450 7250 3450
Wire Wire Line
	6700 3450 7250 3450
Wire Wire Line
	5500 3350 6200 3350
Wire Wire Line
	6700 3250 7800 3250
Wire Wire Line
	5350 4400 7150 4400
Wire Wire Line
	5300 4450 7250 4450
Wire Wire Line
	4900 4300 5250 4300
Wire Wire Line
	5250 4300 5250 4500
Wire Wire Line
	5250 4500 7350 4500
Wire Wire Line
	7350 4500 7350 3550
Wire Wire Line
	7350 3550 6700 3550
Wire Wire Line
	5150 5000 5300 5000
Wire Wire Line
	4900 4400 5200 4400
Wire Wire Line
	5200 4400 5200 4550
Wire Wire Line
	4900 4600 4900 4700
Wire Wire Line
	4900 4700 5150 4700
Wire Wire Line
	5150 4700 5150 5000
Wire Wire Line
	4900 4500 5150 4500
Wire Wire Line
	5150 4500 5150 4600
Wire Wire Line
	5150 4600 7450 4600
Wire Wire Line
	7450 4600 7450 3650
Wire Wire Line
	7450 3650 6700 3650
Wire Wire Line
	6200 3650 6100 3650
$Comp
L power:VCC #PWR0106
U 1 1 5E069AFA
P 6050 3750
F 0 "#PWR0106" H 6050 3600 50  0001 C CNN
F 1 "VCC" H 6067 3923 50  0000 C CNN
F 2 "" H 6050 3750 50  0001 C CNN
F 3 "" H 6050 3750 50  0001 C CNN
	1    6050 3750
	1    0    0    -1  
$EndComp
Wire Wire Line
	3700 4600 3600 4600
Wire Wire Line
	3600 4600 3600 5100
Wire Wire Line
	3600 5100 7550 5100
Wire Wire Line
	7550 5100 7550 3750
Wire Wire Line
	7550 3750 6700 3750
Wire Wire Line
	3700 4500 3550 4500
Wire Wire Line
	3550 4500 3550 5150
Wire Wire Line
	3700 4400 3500 4400
Wire Wire Line
	3500 4400 3500 5200
Wire Wire Line
	3500 5200 7650 5200
Wire Wire Line
	7650 5200 7650 3850
Wire Wire Line
	7650 3850 6700 3850
Wire Wire Line
	3700 4300 3450 4300
Wire Wire Line
	3450 4300 3450 5250
Wire Wire Line
	3700 4200 3400 4200
Wire Wire Line
	7750 3950 6700 3950
Wire Wire Line
	3400 5300 7750 5300
Wire Wire Line
	3400 4200 3400 5300
Wire Wire Line
	7750 3950 7750 5300
Wire Wire Line
	3700 4100 3350 4100
Wire Wire Line
	3350 4100 3350 5350
Wire Wire Line
	3700 4000 3300 4000
Wire Wire Line
	3300 4000 3300 5400
Wire Wire Line
	3300 5400 7850 5400
Wire Wire Line
	7850 5400 7850 4050
Wire Wire Line
	7850 4050 6700 4050
Wire Wire Line
	3700 3900 3250 3900
Wire Wire Line
	3250 3900 3250 5450
Wire Wire Line
	3700 3800 3200 3800
Wire Wire Line
	3200 3800 3200 5500
Wire Wire Line
	3200 5500 7950 5500
Wire Wire Line
	7950 5500 7950 4150
Wire Wire Line
	7950 4150 6700 4150
Wire Wire Line
	6200 4150 6050 4150
$Comp
L power:GND #PWR0107
U 1 1 5E08E083
P 6050 4150
F 0 "#PWR0107" H 6050 3900 50  0001 C CNN
F 1 "GND" H 6055 3977 50  0000 C CNN
F 2 "" H 6050 4150 50  0001 C CNN
F 3 "" H 6050 4150 50  0001 C CNN
	1    6050 4150
	1    0    0    -1  
$EndComp
Wire Wire Line
	3700 3600 3150 3600
Wire Wire Line
	3150 3600 3150 5550
Wire Wire Line
	3150 5550 8050 5550
Wire Wire Line
	8050 5550 8050 4250
Wire Wire Line
	8050 4250 6700 4250
Wire Wire Line
	3700 3500 3100 3500
Wire Wire Line
	3100 3500 3100 5600
Wire Wire Line
	3100 5600 6100 5600
Wire Wire Line
	6100 5600 6100 4250
Wire Wire Line
	6100 4250 6200 4250
Wire Wire Line
	3700 3400 3050 3400
Wire Wire Line
	3050 3400 3050 5600
Wire Wire Line
	3050 5600 1550 5600
Wire Wire Line
	1550 5600 1550 4250
Wire Wire Line
	1550 4250 1650 4250
Wire Wire Line
	3700 3300 3000 3300
Wire Wire Line
	3000 3300 3000 4250
Wire Wire Line
	3000 4250 2150 4250
Wire Wire Line
	3700 3200 2950 3200
Wire Wire Line
	1450 5550 1450 4150
Wire Wire Line
	1450 4150 1650 4150
Wire Wire Line
	2950 3200 2950 5550
Wire Wire Line
	1450 5550 2950 5550
Wire Wire Line
	3700 3100 2900 3100
Wire Wire Line
	2900 3100 2900 4150
Wire Wire Line
	2900 4150 2150 4150
Wire Wire Line
	3700 3000 2850 3000
Wire Wire Line
	2850 3000 2850 5500
Wire Wire Line
	2850 5500 1350 5500
Wire Wire Line
	1350 5500 1350 4050
Wire Wire Line
	1350 4050 1650 4050
Wire Wire Line
	3700 2900 2800 2900
Wire Wire Line
	2800 2900 2800 4050
Wire Wire Line
	2800 4050 2150 4050
Wire Wire Line
	3700 2800 2750 2800
Wire Wire Line
	2750 2800 2750 5450
Wire Wire Line
	2750 5450 1250 5450
Wire Wire Line
	1250 5450 1250 3950
Wire Wire Line
	1250 3950 1650 3950
Wire Wire Line
	3700 2700 2700 2700
Wire Wire Line
	2700 2700 2700 3950
Wire Wire Line
	2700 3950 2150 3950
Wire Wire Line
	2800 2600 2650 2600
Wire Wire Line
	2650 2600 2650 5400
Wire Wire Line
	2650 5400 1150 5400
Wire Wire Line
	1150 5400 1150 3850
Wire Wire Line
	1150 3850 1650 3850
Connection ~ 2800 2600
NoConn ~ 2150 3750
NoConn ~ 1650 3550
Wire Wire Line
	2500 2550 2500 3550
Wire Wire Line
	2500 3550 2150 3550
Wire Wire Line
	2150 3650 2600 3650
Wire Wire Line
	2600 3650 2600 2200
Wire Wire Line
	2600 2200 3000 2200
Wire Wire Line
	3000 2200 3000 1450
Wire Wire Line
	3000 1450 2800 1450
Wire Wire Line
	1650 3650 1250 3650
Wire Wire Line
	1250 3650 1250 1200
Wire Wire Line
	1250 1200 2700 1200
Wire Wire Line
	2700 1200 2700 1450
$Comp
L power:VCC #PWR0108
U 1 1 5E147F01
P 2500 1450
F 0 "#PWR0108" H 2500 1300 50  0001 C CNN
F 1 "VCC" H 2517 1623 50  0000 C CNN
F 2 "" H 2500 1450 50  0001 C CNN
F 3 "" H 2500 1450 50  0001 C CNN
	1    2500 1450
	1    0    0    -1  
$EndComp
Text Label 1500 3650 0    50   ~ 0
_RP
Text Label 2150 3650 0    50   ~ 0
_WE
Text Label 3600 2600 0    50   ~ 0
A18
Text Label 5000 2600 2    50   ~ 0
A19
Wire Wire Line
	1650 3450 1200 3450
Wire Wire Line
	1200 3450 1200 1150
Wire Wire Line
	1200 1150 5050 1150
Wire Wire Line
	5050 1150 5050 2700
Wire Wire Line
	5050 2700 4900 2700
Wire Wire Line
	2150 3450 2450 3450
Wire Wire Line
	2450 3450 2450 2400
Wire Wire Line
	2450 2400 1150 2400
Wire Wire Line
	1150 2400 1150 1100
Wire Wire Line
	1150 1100 5100 1100
Wire Wire Line
	5100 1100 5100 2800
Wire Wire Line
	5100 2800 4900 2800
Wire Wire Line
	1650 3350 1100 3350
Wire Wire Line
	1100 3350 1100 1050
Wire Wire Line
	1100 1050 5150 1050
Wire Wire Line
	5150 1050 5150 2900
Wire Wire Line
	5150 2900 4900 2900
Wire Wire Line
	2150 3350 2400 3350
Wire Wire Line
	2400 2450 1050 2450
Wire Wire Line
	1050 2450 1050 1000
Wire Wire Line
	1050 1000 5200 1000
Wire Wire Line
	5200 1000 5200 3000
Wire Wire Line
	5200 3000 4900 3000
Wire Wire Line
	2400 2450 2400 3350
Wire Wire Line
	1650 3250 1000 3250
Wire Wire Line
	1000 3250 1000 950 
Wire Wire Line
	1000 950  5250 950 
Wire Wire Line
	5250 950  5250 3100
Wire Wire Line
	4900 3100 5250 3100
Wire Wire Line
	2150 3250 2350 3250
Wire Wire Line
	2350 3250 2350 2500
Wire Wire Line
	2350 2500 950  2500
Wire Wire Line
	950  2500 950  900 
Wire Wire Line
	950  900  5300 900 
Wire Wire Line
	5300 900  5300 3200
Wire Wire Line
	5300 3200 4900 3200
Wire Wire Line
	5600 2850 5600 3500
Wire Wire Line
	5600 2850 6900 2850
Wire Wire Line
	4900 3500 5600 3500
Wire Wire Line
	5650 3150 5650 3600
Wire Wire Line
	5650 3150 6200 3150
Wire Wire Line
	4900 3600 5650 3600
Wire Wire Line
	6150 3800 6150 3750
Wire Wire Line
	6150 3750 6200 3750
Wire Wire Line
	6100 3650 6100 3750
Wire Wire Line
	6100 3750 6050 3750
Wire Wire Line
	5700 3250 6200 3250
Wire Wire Line
	6000 4050 6000 5450
Wire Wire Line
	3250 5450 6000 5450
Wire Wire Line
	6000 4050 6200 4050
Wire Wire Line
	5950 3950 5950 5350
Wire Wire Line
	5950 3950 6200 3950
Wire Wire Line
	3350 5350 5950 5350
Wire Wire Line
	5900 3850 5900 5250
Wire Wire Line
	5900 3850 6200 3850
Wire Wire Line
	3450 5250 5900 5250
Wire Wire Line
	5850 3800 5850 5150
Wire Wire Line
	5850 3800 6150 3800
Wire Wire Line
	3550 5150 5850 5150
Wire Wire Line
	5750 3450 5750 4200
Wire Wire Line
	5750 3450 6200 3450
Wire Wire Line
	4900 4200 5750 4200
Wire Wire Line
	5800 3550 5800 4550
Wire Wire Line
	5800 3550 6200 3550
Wire Wire Line
	5200 4550 5800 4550
Wire Wire Line
	5700 3250 5700 3800
Wire Wire Line
	4900 3800 5700 3800
Wire Wire Line
	1650 3150 900  3150
Wire Wire Line
	900  3150 900  850 
Wire Wire Line
	900  850  5350 850 
Wire Wire Line
	5350 850  5350 3300
Wire Wire Line
	5350 3300 4900 3300
Wire Wire Line
	2150 3150 2300 3150
Wire Wire Line
	2300 3150 2300 2550
Wire Wire Line
	2300 2550 850  2550
Wire Wire Line
	850  2550 850  800 
Wire Wire Line
	850  800  5400 800 
Wire Wire Line
	5400 800  5400 3400
Wire Wire Line
	5400 3400 4900 3400
Text Label 3600 2700 0    50   ~ 0
A17
Text Label 3650 2800 0    50   ~ 0
A7
Text Label 3650 2900 0    50   ~ 0
A6
Text Label 3650 3000 0    50   ~ 0
A5
Text Label 3650 3100 0    50   ~ 0
A4
Text Label 3650 3200 0    50   ~ 0
A3
Text Label 3650 3300 0    50   ~ 0
A2
Text Label 3650 3400 0    50   ~ 0
A1
Text Label 3650 3500 0    50   ~ 0
A0
Text Label 3650 3600 0    50   ~ 0
_E
Text Label 3600 3700 0    50   ~ 0
GND
Text Label 3650 3800 0    50   ~ 0
_G
Text Label 3650 3900 0    50   ~ 0
Q0
Text Label 3650 4000 0    50   ~ 0
Q8
Text Label 3650 4100 0    50   ~ 0
Q1
Text Label 3650 4200 0    50   ~ 0
Q9
Text Label 3650 4300 0    50   ~ 0
Q2
Text Label 3600 4400 0    50   ~ 0
Q10
Text Label 3650 4500 0    50   ~ 0
Q3
Text Label 3600 4600 0    50   ~ 0
Q11
Text Label 4900 4600 0    50   ~ 0
VCC
Text Label 4950 4500 2    50   ~ 0
Q4
Text Label 5000 4400 2    50   ~ 0
Q12
NoConn ~ 1650 3750
Text Label 4950 4300 2    50   ~ 0
Q5
Text Label 5000 4200 2    50   ~ 0
Q13
Text Label 4950 4100 2    50   ~ 0
Q6
Text Label 5000 4000 2    50   ~ 0
Q14
Text Label 4950 3900 2    50   ~ 0
Q7
Text Label 5000 3800 2    50   ~ 0
Q15
Text Label 5000 3700 2    50   ~ 0
GND
Text Label 5100 3600 2    50   ~ 0
_BYTE
Text Label 5000 3500 2    50   ~ 0
A16
Text Label 5000 3400 2    50   ~ 0
A15
Text Label 5000 3300 2    50   ~ 0
A14
Text Label 5000 3200 2    50   ~ 0
A13
Text Label 5000 3100 2    50   ~ 0
A12
Text Label 5000 3000 2    50   ~ 0
A11
Text Label 5000 2900 2    50   ~ 0
A10
Text Label 4950 2800 2    50   ~ 0
A9
Text Label 4950 2700 2    50   ~ 0
A8
$Comp
L power:GND #PWR?
U 1 1 5E0306C9
P 2500 1950
F 0 "#PWR?" H 2500 1700 50  0001 C CNN
F 1 "GND" H 2350 1900 50  0000 C CNN
F 2 "" H 2500 1950 50  0001 C CNN
F 3 "" H 2500 1950 50  0001 C CNN
	1    2500 1950
	1    0    0    -1  
$EndComp
Wire Wire Line
	2150 3850 2550 3850
Wire Wire Line
	2550 3850 2550 2350
Wire Wire Line
	2550 2350 1300 2350
Wire Wire Line
	1300 2350 1300 1250
Wire Wire Line
	1300 1250 2600 1250
Wire Wire Line
	2600 1250 2600 1450
Text Label 2150 3850 0    50   ~ 0
RY_BY
Wire Wire Line
	2650 2550 2650 2100
Wire Wire Line
	2650 2100 2600 2100
Wire Wire Line
	2650 2550 2500 2550
Wire Wire Line
	2600 1950 2600 2100
Wire Wire Line
	2650 2100 5000 2100
Connection ~ 2650 2100
Wire Wire Line
	5000 2100 5000 2600
$EndSCHEMATC
